0,0,0,0,0,0,0,0,0,0,0,0,0,0,0,0,0,0
0,0,0,0,0,0,0,0,0,0,0,0,0,0,0,0,0,0
0,0,11,0,12,0,0,0,0,0,0,0,0,0,0,0,0,0
0,0,0,0,0,0,11,0,13,0,0,0,0,0,0,0,0,0
0,0,0,0,0,0,0,0,0,0,12,0,13,0,0,0,0,0
0,0,1,0,24,0,0,0,0,0,0,0,0,0,0,0,0,0
0,0,0,0,0,0,1,0,26,0,0,0,0,0,0,0,0,0
0,0,0,0,0,0,0,0,0,0,1,0,25,0,0,0,0,0
0,0,12,0,11,0,0,0,0,0,0,0,0,0,0,0,0,0
0,0,0,0,0,0,13,0,11,0,0,0,0,0,0,0,0,0
0,0,0,0,0,0,0,0,0,0,13,0,12,0,0,0,0,0
0,0,0,0,0,0,0,0,0,0,0,0,0,0,0,0,0,0
