^C:\COCOS2DXDIRECTORY\LIGHTGAME\CLASSES\HELLOWORLDSCENE.CPP
/c /IC:\COCOS2DXDIRECTORY\LIGHTGAME\COCOS2D\COCOS\2D\..\..\COCOS\AUDIO\INCLUDE /IC:\COCOS2DXDIRECTORY\LIGHTGAME\COCOS2D\COCOS\2D\..\..\EXTERNAL /IC:\COCOS2DXDIRECTORY\LIGHTGAME\COCOS2D\COCOS\2D\..\..\EXTERNAL\CHIPMUNK\INCLUDE\CHIPMUNK /IC:\COCOS2DXDIRECTORY\LIGHTGAME\COCOS2D\COCOS\2D\..\..\EXTENSIONS /I..\CLASSES /I.. /I"C:\COCOS2DXDIRECTORY\LIGHTGAME\COCOS2D\COCOS\2D\..\..\COCOS\EDITOR-SUPPORT" /IC:\COCOS2DXDIRECTORY\LIGHTGAME\COCOS2D\COCOS\2D\..\..\COCOS /IC:\COCOS2DXDIRECTORY\LIGHTGAME\COCOS2D\COCOS\2D\..\..\COCOS\PLATFORM /IC:\COCOS2DXDIRECTORY\LIGHTGAME\COCOS2D\COCOS\2D\..\..\COCOS\PLATFORM\DESKTOP /IC:\COCOS2DXDIRECTORY\LIGHTGAME\COCOS2D\COCOS\2D\..\..\EXTERNAL\GLFW3\INCLUDE\WIN32 /I"C:\COCOS2DXDIRECTORY\LIGHTGAME\COCOS2D\COCOS\2D\..\..\EXTERNAL\WIN32-SPECIFIC\GLES\INCLUDE\OGLES" /IC:\COCOS2DXDIRECTORY\LIGHTGAME\COCOS2D\COCOS\2D\..\..\EXTERNAL\FREETYPE2\INCLUDE\WIN32\FREETYPE2 /IC:\COCOS2DXDIRECTORY\LIGHTGAME\COCOS2D\COCOS\2D\..\..\EXTERNAL\FREETYPE2\INCLUDE\WIN32\ /IC:\COCOS2DXDIRECTORY\LIGHTGAME\COCOS2D\COCOS\2D\..\..\EXTERNAL /ZI /nologo /W3 /WX- /Od /Oy- /D WIN32 /D _DEBUG /D _WINDOWS /D _USE_MATH_DEFINES /D GL_GLEXT_PROTOTYPES /D CC_ENABLE_CHIPMUNK_INTEGRATION=1 /D COCOS2D_DEBUG=1 /D _CRT_SECURE_NO_WARNINGS /D _SCL_SECURE_NO_WARNINGS /D _VARIADIC_MAX=10 /D _USING_V110_SDK71_ /D _UNICODE /D UNICODE /Gm- /EHsc /RTC1 /MDd /GS /fp:precise /Zc:wchar_t /Zc:forScope /Zc:inline /Fo"DEBUG.WIN32\\" /Fd"DEBUG.WIN32\VC140.PDB" /Gd /TP /wd4267 /wd4251 /wd4244 /analyze- C:\COCOS2DXDIRECTORY\LIGHTGAME\CLASSES\HELLOWORLDSCENE.CPP
^C:\COCOS2DXDIRECTORY\LIGHTGAME\PROJ.WIN32\MAIN.CPP
/c /IC:\COCOS2DXDIRECTORY\LIGHTGAME\COCOS2D\COCOS\2D\..\..\COCOS\AUDIO\INCLUDE /IC:\COCOS2DXDIRECTORY\LIGHTGAME\COCOS2D\COCOS\2D\..\..\EXTERNAL /IC:\COCOS2DXDIRECTORY\LIGHTGAME\COCOS2D\COCOS\2D\..\..\EXTERNAL\CHIPMUNK\INCLUDE\CHIPMUNK /IC:\COCOS2DXDIRECTORY\LIGHTGAME\COCOS2D\COCOS\2D\..\..\EXTENSIONS /I..\CLASSES /I.. /I"C:\COCOS2DXDIRECTORY\LIGHTGAME\COCOS2D\COCOS\2D\..\..\COCOS\EDITOR-SUPPORT" /IC:\COCOS2DXDIRECTORY\LIGHTGAME\COCOS2D\COCOS\2D\..\..\COCOS /IC:\COCOS2DXDIRECTORY\LIGHTGAME\COCOS2D\COCOS\2D\..\..\COCOS\PLATFORM /IC:\COCOS2DXDIRECTORY\LIGHTGAME\COCOS2D\COCOS\2D\..\..\COCOS\PLATFORM\DESKTOP /IC:\COCOS2DXDIRECTORY\LIGHTGAME\COCOS2D\COCOS\2D\..\..\EXTERNAL\GLFW3\INCLUDE\WIN32 /I"C:\COCOS2DXDIRECTORY\LIGHTGAME\COCOS2D\COCOS\2D\..\..\EXTERNAL\WIN32-SPECIFIC\GLES\INCLUDE\OGLES" /IC:\COCOS2DXDIRECTORY\LIGHTGAME\COCOS2D\COCOS\2D\..\..\EXTERNAL\FREETYPE2\INCLUDE\WIN32\FREETYPE2 /IC:\COCOS2DXDIRECTORY\LIGHTGAME\COCOS2D\COCOS\2D\..\..\EXTERNAL\FREETYPE2\INCLUDE\WIN32\ /IC:\COCOS2DXDIRECTORY\LIGHTGAME\COCOS2D\COCOS\2D\..\..\EXTERNAL /ZI /nologo /W3 /WX- /Od /Oy- /D WIN32 /D _DEBUG /D _WINDOWS /D _USE_MATH_DEFINES /D GL_GLEXT_PROTOTYPES /D CC_ENABLE_CHIPMUNK_INTEGRATION=1 /D COCOS2D_DEBUG=1 /D _CRT_SECURE_NO_WARNINGS /D _SCL_SECURE_NO_WARNINGS /D _VARIADIC_MAX=10 /D _USING_V110_SDK71_ /D _UNICODE /D UNICODE /Gm- /EHsc /RTC1 /MDd /GS /fp:precise /Zc:wchar_t /Zc:forScope /Zc:inline /Fo"DEBUG.WIN32\\" /Fd"DEBUG.WIN32\VC140.PDB" /Gd /TP /wd4267 /wd4251 /wd4244 /analyze- C:\COCOS2DXDIRECTORY\LIGHTGAME\PROJ.WIN32\MAIN.CPP
^C:\COCOS2DXDIRECTORY\LIGHTGAME\CLASSES\CSVPARSER.CPP
/c /IC:\COCOS2DXDIRECTORY\LIGHTGAME\COCOS2D\COCOS\2D\..\..\COCOS\AUDIO\INCLUDE /IC:\COCOS2DXDIRECTORY\LIGHTGAME\COCOS2D\COCOS\2D\..\..\EXTERNAL /IC:\COCOS2DXDIRECTORY\LIGHTGAME\COCOS2D\COCOS\2D\..\..\EXTERNAL\CHIPMUNK\INCLUDE\CHIPMUNK /IC:\COCOS2DXDIRECTORY\LIGHTGAME\COCOS2D\COCOS\2D\..\..\EXTENSIONS /I..\CLASSES /I.. /I"C:\COCOS2DXDIRECTORY\LIGHTGAME\COCOS2D\COCOS\2D\..\..\COCOS\EDITOR-SUPPORT" /IC:\COCOS2DXDIRECTORY\LIGHTGAME\COCOS2D\COCOS\2D\..\..\COCOS /IC:\COCOS2DXDIRECTORY\LIGHTGAME\COCOS2D\COCOS\2D\..\..\COCOS\PLATFORM /IC:\COCOS2DXDIRECTORY\LIGHTGAME\COCOS2D\COCOS\2D\..\..\COCOS\PLATFORM\DESKTOP /IC:\COCOS2DXDIRECTORY\LIGHTGAME\COCOS2D\COCOS\2D\..\..\EXTERNAL\GLFW3\INCLUDE\WIN32 /I"C:\COCOS2DXDIRECTORY\LIGHTGAME\COCOS2D\COCOS\2D\..\..\EXTERNAL\WIN32-SPECIFIC\GLES\INCLUDE\OGLES" /IC:\COCOS2DXDIRECTORY\LIGHTGAME\COCOS2D\COCOS\2D\..\..\EXTERNAL\FREETYPE2\INCLUDE\WIN32\FREETYPE2 /IC:\COCOS2DXDIRECTORY\LIGHTGAME\COCOS2D\COCOS\2D\..\..\EXTERNAL\FREETYPE2\INCLUDE\WIN32\ /IC:\COCOS2DXDIRECTORY\LIGHTGAME\COCOS2D\COCOS\2D\..\..\EXTERNAL /ZI /nologo /W3 /WX- /Od /Oy- /D WIN32 /D _DEBUG /D _WINDOWS /D _USE_MATH_DEFINES /D GL_GLEXT_PROTOTYPES /D CC_ENABLE_CHIPMUNK_INTEGRATION=1 /D COCOS2D_DEBUG=1 /D _CRT_SECURE_NO_WARNINGS /D _SCL_SECURE_NO_WARNINGS /D _VARIADIC_MAX=10 /D _USING_V110_SDK71_ /D _UNICODE /D UNICODE /Gm- /EHsc /RTC1 /MDd /GS /fp:precise /Zc:wchar_t /Zc:forScope /Zc:inline /Fo"DEBUG.WIN32\\" /Fd"DEBUG.WIN32\VC140.PDB" /Gd /TP /wd4267 /wd4251 /wd4244 /analyze- C:\COCOS2DXDIRECTORY\LIGHTGAME\CLASSES\CSVPARSER.CPP
^C:\COCOS2DXDIRECTORY\LIGHTGAME\CLASSES\LEVELSELECTSCENE.CPP
/c /IC:\COCOS2DXDIRECTORY\LIGHTGAME\COCOS2D\COCOS\2D\..\..\COCOS\AUDIO\INCLUDE /IC:\COCOS2DXDIRECTORY\LIGHTGAME\COCOS2D\COCOS\2D\..\..\EXTERNAL /IC:\COCOS2DXDIRECTORY\LIGHTGAME\COCOS2D\COCOS\2D\..\..\EXTERNAL\CHIPMUNK\INCLUDE\CHIPMUNK /IC:\COCOS2DXDIRECTORY\LIGHTGAME\COCOS2D\COCOS\2D\..\..\EXTENSIONS /I..\CLASSES /I.. /I"C:\COCOS2DXDIRECTORY\LIGHTGAME\COCOS2D\COCOS\2D\..\..\COCOS\EDITOR-SUPPORT" /IC:\COCOS2DXDIRECTORY\LIGHTGAME\COCOS2D\COCOS\2D\..\..\COCOS /IC:\COCOS2DXDIRECTORY\LIGHTGAME\COCOS2D\COCOS\2D\..\..\COCOS\PLATFORM /IC:\COCOS2DXDIRECTORY\LIGHTGAME\COCOS2D\COCOS\2D\..\..\COCOS\PLATFORM\DESKTOP /IC:\COCOS2DXDIRECTORY\LIGHTGAME\COCOS2D\COCOS\2D\..\..\EXTERNAL\GLFW3\INCLUDE\WIN32 /I"C:\COCOS2DXDIRECTORY\LIGHTGAME\COCOS2D\COCOS\2D\..\..\EXTERNAL\WIN32-SPECIFIC\GLES\INCLUDE\OGLES" /IC:\COCOS2DXDIRECTORY\LIGHTGAME\COCOS2D\COCOS\2D\..\..\EXTERNAL\FREETYPE2\INCLUDE\WIN32\FREETYPE2 /IC:\COCOS2DXDIRECTORY\LIGHTGAME\COCOS2D\COCOS\2D\..\..\EXTERNAL\FREETYPE2\INCLUDE\WIN32\ /IC:\COCOS2DXDIRECTORY\LIGHTGAME\COCOS2D\COCOS\2D\..\..\EXTERNAL /ZI /nologo /W3 /WX- /Od /Oy- /D WIN32 /D _DEBUG /D _WINDOWS /D _USE_MATH_DEFINES /D GL_GLEXT_PROTOTYPES /D CC_ENABLE_CHIPMUNK_INTEGRATION=1 /D COCOS2D_DEBUG=1 /D _CRT_SECURE_NO_WARNINGS /D _SCL_SECURE_NO_WARNINGS /D _VARIADIC_MAX=10 /D _USING_V110_SDK71_ /D _UNICODE /D UNICODE /Gm- /EHsc /RTC1 /MDd /GS /fp:precise /Zc:wchar_t /Zc:forScope /Zc:inline /Fo"DEBUG.WIN32\\" /Fd"DEBUG.WIN32\VC140.PDB" /Gd /TP /wd4267 /wd4251 /wd4244 /analyze- C:\COCOS2DXDIRECTORY\LIGHTGAME\CLASSES\LEVELSELECTSCENE.CPP
^C:\COCOS2DXDIRECTORY\LIGHTGAME\CLASSES\LIGHTEMITTER.CPP
/c /IC:\COCOS2DXDIRECTORY\LIGHTGAME\COCOS2D\COCOS\2D\..\..\COCOS\AUDIO\INCLUDE /IC:\COCOS2DXDIRECTORY\LIGHTGAME\COCOS2D\COCOS\2D\..\..\EXTERNAL /IC:\COCOS2DXDIRECTORY\LIGHTGAME\COCOS2D\COCOS\2D\..\..\EXTERNAL\CHIPMUNK\INCLUDE\CHIPMUNK /IC:\COCOS2DXDIRECTORY\LIGHTGAME\COCOS2D\COCOS\2D\..\..\EXTENSIONS /I..\CLASSES /I.. /I"C:\COCOS2DXDIRECTORY\LIGHTGAME\COCOS2D\COCOS\2D\..\..\COCOS\EDITOR-SUPPORT" /IC:\COCOS2DXDIRECTORY\LIGHTGAME\COCOS2D\COCOS\2D\..\..\COCOS /IC:\COCOS2DXDIRECTORY\LIGHTGAME\COCOS2D\COCOS\2D\..\..\COCOS\PLATFORM /IC:\COCOS2DXDIRECTORY\LIGHTGAME\COCOS2D\COCOS\2D\..\..\COCOS\PLATFORM\DESKTOP /IC:\COCOS2DXDIRECTORY\LIGHTGAME\COCOS2D\COCOS\2D\..\..\EXTERNAL\GLFW3\INCLUDE\WIN32 /I"C:\COCOS2DXDIRECTORY\LIGHTGAME\COCOS2D\COCOS\2D\..\..\EXTERNAL\WIN32-SPECIFIC\GLES\INCLUDE\OGLES" /IC:\COCOS2DXDIRECTORY\LIGHTGAME\COCOS2D\COCOS\2D\..\..\EXTERNAL\FREETYPE2\INCLUDE\WIN32\FREETYPE2 /IC:\COCOS2DXDIRECTORY\LIGHTGAME\COCOS2D\COCOS\2D\..\..\EXTERNAL\FREETYPE2\INCLUDE\WIN32\ /IC:\COCOS2DXDIRECTORY\LIGHTGAME\COCOS2D\COCOS\2D\..\..\EXTERNAL /ZI /nologo /W3 /WX- /Od /Oy- /D WIN32 /D _DEBUG /D _WINDOWS /D _USE_MATH_DEFINES /D GL_GLEXT_PROTOTYPES /D CC_ENABLE_CHIPMUNK_INTEGRATION=1 /D COCOS2D_DEBUG=1 /D _CRT_SECURE_NO_WARNINGS /D _SCL_SECURE_NO_WARNINGS /D _VARIADIC_MAX=10 /D _USING_V110_SDK71_ /D _UNICODE /D UNICODE /Gm- /EHsc /RTC1 /MDd /GS /fp:precise /Zc:wchar_t /Zc:forScope /Zc:inline /Fo"DEBUG.WIN32\\" /Fd"DEBUG.WIN32\VC140.PDB" /Gd /TP /wd4267 /wd4251 /wd4244 /analyze- C:\COCOS2DXDIRECTORY\LIGHTGAME\CLASSES\LIGHTEMITTER.CPP
^C:\COCOS2DXDIRECTORY\LIGHTGAME\CLASSES\LIGHTRECEIVER.CPP
/c /IC:\COCOS2DXDIRECTORY\LIGHTGAME\COCOS2D\COCOS\2D\..\..\COCOS\AUDIO\INCLUDE /IC:\COCOS2DXDIRECTORY\LIGHTGAME\COCOS2D\COCOS\2D\..\..\EXTERNAL /IC:\COCOS2DXDIRECTORY\LIGHTGAME\COCOS2D\COCOS\2D\..\..\EXTERNAL\CHIPMUNK\INCLUDE\CHIPMUNK /IC:\COCOS2DXDIRECTORY\LIGHTGAME\COCOS2D\COCOS\2D\..\..\EXTENSIONS /I..\CLASSES /I.. /I"C:\COCOS2DXDIRECTORY\LIGHTGAME\COCOS2D\COCOS\2D\..\..\COCOS\EDITOR-SUPPORT" /IC:\COCOS2DXDIRECTORY\LIGHTGAME\COCOS2D\COCOS\2D\..\..\COCOS /IC:\COCOS2DXDIRECTORY\LIGHTGAME\COCOS2D\COCOS\2D\..\..\COCOS\PLATFORM /IC:\COCOS2DXDIRECTORY\LIGHTGAME\COCOS2D\COCOS\2D\..\..\COCOS\PLATFORM\DESKTOP /IC:\COCOS2DXDIRECTORY\LIGHTGAME\COCOS2D\COCOS\2D\..\..\EXTERNAL\GLFW3\INCLUDE\WIN32 /I"C:\COCOS2DXDIRECTORY\LIGHTGAME\COCOS2D\COCOS\2D\..\..\EXTERNAL\WIN32-SPECIFIC\GLES\INCLUDE\OGLES" /IC:\COCOS2DXDIRECTORY\LIGHTGAME\COCOS2D\COCOS\2D\..\..\EXTERNAL\FREETYPE2\INCLUDE\WIN32\FREETYPE2 /IC:\COCOS2DXDIRECTORY\LIGHTGAME\COCOS2D\COCOS\2D\..\..\EXTERNAL\FREETYPE2\INCLUDE\WIN32\ /IC:\COCOS2DXDIRECTORY\LIGHTGAME\COCOS2D\COCOS\2D\..\..\EXTERNAL /ZI /nologo /W3 /WX- /Od /Oy- /D WIN32 /D _DEBUG /D _WINDOWS /D _USE_MATH_DEFINES /D GL_GLEXT_PROTOTYPES /D CC_ENABLE_CHIPMUNK_INTEGRATION=1 /D COCOS2D_DEBUG=1 /D _CRT_SECURE_NO_WARNINGS /D _SCL_SECURE_NO_WARNINGS /D _VARIADIC_MAX=10 /D _USING_V110_SDK71_ /D _UNICODE /D UNICODE /Gm- /EHsc /RTC1 /MDd /GS /fp:precise /Zc:wchar_t /Zc:forScope /Zc:inline /Fo"DEBUG.WIN32\\" /Fd"DEBUG.WIN32\VC140.PDB" /Gd /TP /wd4267 /wd4251 /wd4244 /analyze- C:\COCOS2DXDIRECTORY\LIGHTGAME\CLASSES\LIGHTRECEIVER.CPP
^C:\COCOS2DXDIRECTORY\LIGHTGAME\CLASSES\MIRRORS.CPP
/c /IC:\COCOS2DXDIRECTORY\LIGHTGAME\COCOS2D\COCOS\2D\..\..\COCOS\AUDIO\INCLUDE /IC:\COCOS2DXDIRECTORY\LIGHTGAME\COCOS2D\COCOS\2D\..\..\EXTERNAL /IC:\COCOS2DXDIRECTORY\LIGHTGAME\COCOS2D\COCOS\2D\..\..\EXTERNAL\CHIPMUNK\INCLUDE\CHIPMUNK /IC:\COCOS2DXDIRECTORY\LIGHTGAME\COCOS2D\COCOS\2D\..\..\EXTENSIONS /I..\CLASSES /I.. /I"C:\COCOS2DXDIRECTORY\LIGHTGAME\COCOS2D\COCOS\2D\..\..\COCOS\EDITOR-SUPPORT" /IC:\COCOS2DXDIRECTORY\LIGHTGAME\COCOS2D\COCOS\2D\..\..\COCOS /IC:\COCOS2DXDIRECTORY\LIGHTGAME\COCOS2D\COCOS\2D\..\..\COCOS\PLATFORM /IC:\COCOS2DXDIRECTORY\LIGHTGAME\COCOS2D\COCOS\2D\..\..\COCOS\PLATFORM\DESKTOP /IC:\COCOS2DXDIRECTORY\LIGHTGAME\COCOS2D\COCOS\2D\..\..\EXTERNAL\GLFW3\INCLUDE\WIN32 /I"C:\COCOS2DXDIRECTORY\LIGHTGAME\COCOS2D\COCOS\2D\..\..\EXTERNAL\WIN32-SPECIFIC\GLES\INCLUDE\OGLES" /IC:\COCOS2DXDIRECTORY\LIGHTGAME\COCOS2D\COCOS\2D\..\..\EXTERNAL\FREETYPE2\INCLUDE\WIN32\FREETYPE2 /IC:\COCOS2DXDIRECTORY\LIGHTGAME\COCOS2D\COCOS\2D\..\..\EXTERNAL\FREETYPE2\INCLUDE\WIN32\ /IC:\COCOS2DXDIRECTORY\LIGHTGAME\COCOS2D\COCOS\2D\..\..\EXTERNAL /ZI /nologo /W3 /WX- /Od /Oy- /D WIN32 /D _DEBUG /D _WINDOWS /D _USE_MATH_DEFINES /D GL_GLEXT_PROTOTYPES /D CC_ENABLE_CHIPMUNK_INTEGRATION=1 /D COCOS2D_DEBUG=1 /D _CRT_SECURE_NO_WARNINGS /D _SCL_SECURE_NO_WARNINGS /D _VARIADIC_MAX=10 /D _USING_V110_SDK71_ /D _UNICODE /D UNICODE /Gm- /EHsc /RTC1 /MDd /GS /fp:precise /Zc:wchar_t /Zc:forScope /Zc:inline /Fo"DEBUG.WIN32\\" /Fd"DEBUG.WIN32\VC140.PDB" /Gd /TP /wd4267 /wd4251 /wd4244 /analyze- C:\COCOS2DXDIRECTORY\LIGHTGAME\CLASSES\MIRRORS.CPP
^C:\COCOS2DXDIRECTORY\LIGHTGAME\CLASSES\CMAP.CPP
/c /IC:\COCOS2DXDIRECTORY\LIGHTGAME\COCOS2D\COCOS\2D\..\..\COCOS\AUDIO\INCLUDE /IC:\COCOS2DXDIRECTORY\LIGHTGAME\COCOS2D\COCOS\2D\..\..\EXTERNAL /IC:\COCOS2DXDIRECTORY\LIGHTGAME\COCOS2D\COCOS\2D\..\..\EXTERNAL\CHIPMUNK\INCLUDE\CHIPMUNK /IC:\COCOS2DXDIRECTORY\LIGHTGAME\COCOS2D\COCOS\2D\..\..\EXTENSIONS /I..\CLASSES /I.. /I"C:\COCOS2DXDIRECTORY\LIGHTGAME\COCOS2D\COCOS\2D\..\..\COCOS\EDITOR-SUPPORT" /IC:\COCOS2DXDIRECTORY\LIGHTGAME\COCOS2D\COCOS\2D\..\..\COCOS /IC:\COCOS2DXDIRECTORY\LIGHTGAME\COCOS2D\COCOS\2D\..\..\COCOS\PLATFORM /IC:\COCOS2DXDIRECTORY\LIGHTGAME\COCOS2D\COCOS\2D\..\..\COCOS\PLATFORM\DESKTOP /IC:\COCOS2DXDIRECTORY\LIGHTGAME\COCOS2D\COCOS\2D\..\..\EXTERNAL\GLFW3\INCLUDE\WIN32 /I"C:\COCOS2DXDIRECTORY\LIGHTGAME\COCOS2D\COCOS\2D\..\..\EXTERNAL\WIN32-SPECIFIC\GLES\INCLUDE\OGLES" /IC:\COCOS2DXDIRECTORY\LIGHTGAME\COCOS2D\COCOS\2D\..\..\EXTERNAL\FREETYPE2\INCLUDE\WIN32\FREETYPE2 /IC:\COCOS2DXDIRECTORY\LIGHTGAME\COCOS2D\COCOS\2D\..\..\EXTERNAL\FREETYPE2\INCLUDE\WIN32\ /IC:\COCOS2DXDIRECTORY\LIGHTGAME\COCOS2D\COCOS\2D\..\..\EXTERNAL /ZI /nologo /W3 /WX- /Od /Oy- /D WIN32 /D _DEBUG /D _WINDOWS /D _USE_MATH_DEFINES /D GL_GLEXT_PROTOTYPES /D CC_ENABLE_CHIPMUNK_INTEGRATION=1 /D COCOS2D_DEBUG=1 /D _CRT_SECURE_NO_WARNINGS /D _SCL_SECURE_NO_WARNINGS /D _VARIADIC_MAX=10 /D _USING_V110_SDK71_ /D _UNICODE /D UNICODE /Gm- /EHsc /RTC1 /MDd /GS /fp:precise /Zc:wchar_t /Zc:forScope /Zc:inline /Fo"DEBUG.WIN32\\" /Fd"DEBUG.WIN32\VC140.PDB" /Gd /TP /wd4267 /wd4251 /wd4244 /analyze- C:\COCOS2DXDIRECTORY\LIGHTGAME\CLASSES\CMAP.CPP
^C:\COCOS2DXDIRECTORY\LIGHTGAME\CLASSES\DOORTRIGER.CPP
/c /IC:\COCOS2DXDIRECTORY\LIGHTGAME\COCOS2D\COCOS\2D\..\..\COCOS\AUDIO\INCLUDE /IC:\COCOS2DXDIRECTORY\LIGHTGAME\COCOS2D\COCOS\2D\..\..\EXTERNAL /IC:\COCOS2DXDIRECTORY\LIGHTGAME\COCOS2D\COCOS\2D\..\..\EXTERNAL\CHIPMUNK\INCLUDE\CHIPMUNK /IC:\COCOS2DXDIRECTORY\LIGHTGAME\COCOS2D\COCOS\2D\..\..\EXTENSIONS /I..\CLASSES /I.. /I"C:\COCOS2DXDIRECTORY\LIGHTGAME\COCOS2D\COCOS\2D\..\..\COCOS\EDITOR-SUPPORT" /IC:\COCOS2DXDIRECTORY\LIGHTGAME\COCOS2D\COCOS\2D\..\..\COCOS /IC:\COCOS2DXDIRECTORY\LIGHTGAME\COCOS2D\COCOS\2D\..\..\COCOS\PLATFORM /IC:\COCOS2DXDIRECTORY\LIGHTGAME\COCOS2D\COCOS\2D\..\..\COCOS\PLATFORM\DESKTOP /IC:\COCOS2DXDIRECTORY\LIGHTGAME\COCOS2D\COCOS\2D\..\..\EXTERNAL\GLFW3\INCLUDE\WIN32 /I"C:\COCOS2DXDIRECTORY\LIGHTGAME\COCOS2D\COCOS\2D\..\..\EXTERNAL\WIN32-SPECIFIC\GLES\INCLUDE\OGLES" /IC:\COCOS2DXDIRECTORY\LIGHTGAME\COCOS2D\COCOS\2D\..\..\EXTERNAL\FREETYPE2\INCLUDE\WIN32\FREETYPE2 /IC:\COCOS2DXDIRECTORY\LIGHTGAME\COCOS2D\COCOS\2D\..\..\EXTERNAL\FREETYPE2\INCLUDE\WIN32\ /IC:\COCOS2DXDIRECTORY\LIGHTGAME\COCOS2D\COCOS\2D\..\..\EXTERNAL /ZI /nologo /W3 /WX- /Od /Oy- /D WIN32 /D _DEBUG /D _WINDOWS /D _USE_MATH_DEFINES /D GL_GLEXT_PROTOTYPES /D CC_ENABLE_CHIPMUNK_INTEGRATION=1 /D COCOS2D_DEBUG=1 /D _CRT_SECURE_NO_WARNINGS /D _SCL_SECURE_NO_WARNINGS /D _VARIADIC_MAX=10 /D _USING_V110_SDK71_ /D _UNICODE /D UNICODE /Gm- /EHsc /RTC1 /MDd /GS /fp:precise /Zc:wchar_t /Zc:forScope /Zc:inline /Fo"DEBUG.WIN32\\" /Fd"DEBUG.WIN32\VC140.PDB" /Gd /TP /wd4267 /wd4251 /wd4244 /analyze- C:\COCOS2DXDIRECTORY\LIGHTGAME\CLASSES\DOORTRIGER.CPP
^C:\COCOS2DXDIRECTORY\LIGHTGAME\CLASSES\DEFINEANDENUM.CPP
/c /IC:\COCOS2DXDIRECTORY\LIGHTGAME\COCOS2D\COCOS\2D\..\..\COCOS\AUDIO\INCLUDE /IC:\COCOS2DXDIRECTORY\LIGHTGAME\COCOS2D\COCOS\2D\..\..\EXTERNAL /IC:\COCOS2DXDIRECTORY\LIGHTGAME\COCOS2D\COCOS\2D\..\..\EXTERNAL\CHIPMUNK\INCLUDE\CHIPMUNK /IC:\COCOS2DXDIRECTORY\LIGHTGAME\COCOS2D\COCOS\2D\..\..\EXTENSIONS /I..\CLASSES /I.. /I"C:\COCOS2DXDIRECTORY\LIGHTGAME\COCOS2D\COCOS\2D\..\..\COCOS\EDITOR-SUPPORT" /IC:\COCOS2DXDIRECTORY\LIGHTGAME\COCOS2D\COCOS\2D\..\..\COCOS /IC:\COCOS2DXDIRECTORY\LIGHTGAME\COCOS2D\COCOS\2D\..\..\COCOS\PLATFORM /IC:\COCOS2DXDIRECTORY\LIGHTGAME\COCOS2D\COCOS\2D\..\..\COCOS\PLATFORM\DESKTOP /IC:\COCOS2DXDIRECTORY\LIGHTGAME\COCOS2D\COCOS\2D\..\..\EXTERNAL\GLFW3\INCLUDE\WIN32 /I"C:\COCOS2DXDIRECTORY\LIGHTGAME\COCOS2D\COCOS\2D\..\..\EXTERNAL\WIN32-SPECIFIC\GLES\INCLUDE\OGLES" /IC:\COCOS2DXDIRECTORY\LIGHTGAME\COCOS2D\COCOS\2D\..\..\EXTERNAL\FREETYPE2\INCLUDE\WIN32\FREETYPE2 /IC:\COCOS2DXDIRECTORY\LIGHTGAME\COCOS2D\COCOS\2D\..\..\EXTERNAL\FREETYPE2\INCLUDE\WIN32\ /IC:\COCOS2DXDIRECTORY\LIGHTGAME\COCOS2D\COCOS\2D\..\..\EXTERNAL /ZI /nologo /W3 /WX- /Od /Oy- /D WIN32 /D _DEBUG /D _WINDOWS /D _USE_MATH_DEFINES /D GL_GLEXT_PROTOTYPES /D CC_ENABLE_CHIPMUNK_INTEGRATION=1 /D COCOS2D_DEBUG=1 /D _CRT_SECURE_NO_WARNINGS /D _SCL_SECURE_NO_WARNINGS /D _VARIADIC_MAX=10 /D _USING_V110_SDK71_ /D _UNICODE /D UNICODE /Gm- /EHsc /RTC1 /MDd /GS /fp:precise /Zc:wchar_t /Zc:forScope /Zc:inline /Fo"DEBUG.WIN32\\" /Fd"DEBUG.WIN32\VC140.PDB" /Gd /TP /wd4267 /wd4251 /wd4244 /analyze- C:\COCOS2DXDIRECTORY\LIGHTGAME\CLASSES\DEFINEANDENUM.CPP
^C:\COCOS2DXDIRECTORY\LIGHTGAME\CLASSES\BLOCK.CPP
/c /IC:\COCOS2DXDIRECTORY\LIGHTGAME\COCOS2D\COCOS\2D\..\..\COCOS\AUDIO\INCLUDE /IC:\COCOS2DXDIRECTORY\LIGHTGAME\COCOS2D\COCOS\2D\..\..\EXTERNAL /IC:\COCOS2DXDIRECTORY\LIGHTGAME\COCOS2D\COCOS\2D\..\..\EXTERNAL\CHIPMUNK\INCLUDE\CHIPMUNK /IC:\COCOS2DXDIRECTORY\LIGHTGAME\COCOS2D\COCOS\2D\..\..\EXTENSIONS /I..\CLASSES /I.. /I"C:\COCOS2DXDIRECTORY\LIGHTGAME\COCOS2D\COCOS\2D\..\..\COCOS\EDITOR-SUPPORT" /IC:\COCOS2DXDIRECTORY\LIGHTGAME\COCOS2D\COCOS\2D\..\..\COCOS /IC:\COCOS2DXDIRECTORY\LIGHTGAME\COCOS2D\COCOS\2D\..\..\COCOS\PLATFORM /IC:\COCOS2DXDIRECTORY\LIGHTGAME\COCOS2D\COCOS\2D\..\..\COCOS\PLATFORM\DESKTOP /IC:\COCOS2DXDIRECTORY\LIGHTGAME\COCOS2D\COCOS\2D\..\..\EXTERNAL\GLFW3\INCLUDE\WIN32 /I"C:\COCOS2DXDIRECTORY\LIGHTGAME\COCOS2D\COCOS\2D\..\..\EXTERNAL\WIN32-SPECIFIC\GLES\INCLUDE\OGLES" /IC:\COCOS2DXDIRECTORY\LIGHTGAME\COCOS2D\COCOS\2D\..\..\EXTERNAL\FREETYPE2\INCLUDE\WIN32\FREETYPE2 /IC:\COCOS2DXDIRECTORY\LIGHTGAME\COCOS2D\COCOS\2D\..\..\EXTERNAL\FREETYPE2\INCLUDE\WIN32\ /IC:\COCOS2DXDIRECTORY\LIGHTGAME\COCOS2D\COCOS\2D\..\..\EXTERNAL /ZI /nologo /W3 /WX- /Od /Oy- /D WIN32 /D _DEBUG /D _WINDOWS /D _USE_MATH_DEFINES /D GL_GLEXT_PROTOTYPES /D CC_ENABLE_CHIPMUNK_INTEGRATION=1 /D COCOS2D_DEBUG=1 /D _CRT_SECURE_NO_WARNINGS /D _SCL_SECURE_NO_WARNINGS /D _VARIADIC_MAX=10 /D _USING_V110_SDK71_ /D _UNICODE /D UNICODE /Gm- /EHsc /RTC1 /MDd /GS /fp:precise /Zc:wchar_t /Zc:forScope /Zc:inline /Fo"DEBUG.WIN32\\" /Fd"DEBUG.WIN32\VC140.PDB" /Gd /TP /wd4267 /wd4251 /wd4244 /analyze- C:\COCOS2DXDIRECTORY\LIGHTGAME\CLASSES\BLOCK.CPP
^C:\COCOS2DXDIRECTORY\LIGHTGAME\CLASSES\CDOORTRIGER.CPP
/c /IC:\COCOS2DXDIRECTORY\LIGHTGAME\COCOS2D\COCOS\2D\..\..\COCOS\AUDIO\INCLUDE /IC:\COCOS2DXDIRECTORY\LIGHTGAME\COCOS2D\COCOS\2D\..\..\EXTERNAL /IC:\COCOS2DXDIRECTORY\LIGHTGAME\COCOS2D\COCOS\2D\..\..\EXTERNAL\CHIPMUNK\INCLUDE\CHIPMUNK /IC:\COCOS2DXDIRECTORY\LIGHTGAME\COCOS2D\COCOS\2D\..\..\EXTENSIONS /I..\CLASSES /I.. /I"C:\COCOS2DXDIRECTORY\LIGHTGAME\COCOS2D\COCOS\2D\..\..\COCOS\EDITOR-SUPPORT" /IC:\COCOS2DXDIRECTORY\LIGHTGAME\COCOS2D\COCOS\2D\..\..\COCOS /IC:\COCOS2DXDIRECTORY\LIGHTGAME\COCOS2D\COCOS\2D\..\..\COCOS\PLATFORM /IC:\COCOS2DXDIRECTORY\LIGHTGAME\COCOS2D\COCOS\2D\..\..\COCOS\PLATFORM\DESKTOP /IC:\COCOS2DXDIRECTORY\LIGHTGAME\COCOS2D\COCOS\2D\..\..\EXTERNAL\GLFW3\INCLUDE\WIN32 /I"C:\COCOS2DXDIRECTORY\LIGHTGAME\COCOS2D\COCOS\2D\..\..\EXTERNAL\WIN32-SPECIFIC\GLES\INCLUDE\OGLES" /IC:\COCOS2DXDIRECTORY\LIGHTGAME\COCOS2D\COCOS\2D\..\..\EXTERNAL\FREETYPE2\INCLUDE\WIN32\FREETYPE2 /IC:\COCOS2DXDIRECTORY\LIGHTGAME\COCOS2D\COCOS\2D\..\..\EXTERNAL\FREETYPE2\INCLUDE\WIN32\ /IC:\COCOS2DXDIRECTORY\LIGHTGAME\COCOS2D\COCOS\2D\..\..\EXTERNAL /ZI /nologo /W3 /WX- /Od /Oy- /D WIN32 /D _DEBUG /D _WINDOWS /D _USE_MATH_DEFINES /D GL_GLEXT_PROTOTYPES /D CC_ENABLE_CHIPMUNK_INTEGRATION=1 /D COCOS2D_DEBUG=1 /D _CRT_SECURE_NO_WARNINGS /D _SCL_SECURE_NO_WARNINGS /D _VARIADIC_MAX=10 /D _USING_V110_SDK71_ /D _UNICODE /D UNICODE /Gm- /EHsc /RTC1 /MDd /GS /fp:precise /Zc:wchar_t /Zc:forScope /Zc:inline /Fo"DEBUG.WIN32\\" /Fd"DEBUG.WIN32\VC140.PDB" /Gd /TP /wd4267 /wd4251 /wd4244 /analyze- C:\COCOS2DXDIRECTORY\LIGHTGAME\CLASSES\CDOORTRIGER.CPP
^C:\COCOS2DXDIRECTORY\LIGHTGAME\CLASSES\LIGHTGAMESCENE.CPP
/c /IC:\COCOS2DXDIRECTORY\LIGHTGAME\COCOS2D\COCOS\2D\..\..\COCOS\AUDIO\INCLUDE /IC:\COCOS2DXDIRECTORY\LIGHTGAME\COCOS2D\COCOS\2D\..\..\EXTERNAL /IC:\COCOS2DXDIRECTORY\LIGHTGAME\COCOS2D\COCOS\2D\..\..\EXTERNAL\CHIPMUNK\INCLUDE\CHIPMUNK /IC:\COCOS2DXDIRECTORY\LIGHTGAME\COCOS2D\COCOS\2D\..\..\EXTENSIONS /I..\CLASSES /I.. /I"C:\COCOS2DXDIRECTORY\LIGHTGAME\COCOS2D\COCOS\2D\..\..\COCOS\EDITOR-SUPPORT" /IC:\COCOS2DXDIRECTORY\LIGHTGAME\COCOS2D\COCOS\2D\..\..\COCOS /IC:\COCOS2DXDIRECTORY\LIGHTGAME\COCOS2D\COCOS\2D\..\..\COCOS\PLATFORM /IC:\COCOS2DXDIRECTORY\LIGHTGAME\COCOS2D\COCOS\2D\..\..\COCOS\PLATFORM\DESKTOP /IC:\COCOS2DXDIRECTORY\LIGHTGAME\COCOS2D\COCOS\2D\..\..\EXTERNAL\GLFW3\INCLUDE\WIN32 /I"C:\COCOS2DXDIRECTORY\LIGHTGAME\COCOS2D\COCOS\2D\..\..\EXTERNAL\WIN32-SPECIFIC\GLES\INCLUDE\OGLES" /IC:\COCOS2DXDIRECTORY\LIGHTGAME\COCOS2D\COCOS\2D\..\..\EXTERNAL\FREETYPE2\INCLUDE\WIN32\FREETYPE2 /IC:\COCOS2DXDIRECTORY\LIGHTGAME\COCOS2D\COCOS\2D\..\..\EXTERNAL\FREETYPE2\INCLUDE\WIN32\ /IC:\COCOS2DXDIRECTORY\LIGHTGAME\COCOS2D\COCOS\2D\..\..\EXTERNAL /ZI /nologo /W3 /WX- /Od /Oy- /D WIN32 /D _DEBUG /D _WINDOWS /D _USE_MATH_DEFINES /D GL_GLEXT_PROTOTYPES /D CC_ENABLE_CHIPMUNK_INTEGRATION=1 /D COCOS2D_DEBUG=1 /D _CRT_SECURE_NO_WARNINGS /D _SCL_SECURE_NO_WARNINGS /D _VARIADIC_MAX=10 /D _USING_V110_SDK71_ /D _UNICODE /D UNICODE /Gm- /EHsc /RTC1 /MDd /GS /fp:precise /Zc:wchar_t /Zc:forScope /Zc:inline /Fo"DEBUG.WIN32\\" /Fd"DEBUG.WIN32\VC140.PDB" /Gd /TP /wd4267 /wd4251 /wd4244 /analyze- C:\COCOS2DXDIRECTORY\LIGHTGAME\CLASSES\LIGHTGAMESCENE.CPP
^C:\COCOS2DXDIRECTORY\LIGHTGAME\CLASSES\THEMESCENE.CPP
/c /IC:\COCOS2DXDIRECTORY\LIGHTGAME\COCOS2D\COCOS\2D\..\..\COCOS\AUDIO\INCLUDE /IC:\COCOS2DXDIRECTORY\LIGHTGAME\COCOS2D\COCOS\2D\..\..\EXTERNAL /IC:\COCOS2DXDIRECTORY\LIGHTGAME\COCOS2D\COCOS\2D\..\..\EXTERNAL\CHIPMUNK\INCLUDE\CHIPMUNK /IC:\COCOS2DXDIRECTORY\LIGHTGAME\COCOS2D\COCOS\2D\..\..\EXTENSIONS /I..\CLASSES /I.. /I"C:\COCOS2DXDIRECTORY\LIGHTGAME\COCOS2D\COCOS\2D\..\..\COCOS\EDITOR-SUPPORT" /IC:\COCOS2DXDIRECTORY\LIGHTGAME\COCOS2D\COCOS\2D\..\..\COCOS /IC:\COCOS2DXDIRECTORY\LIGHTGAME\COCOS2D\COCOS\2D\..\..\COCOS\PLATFORM /IC:\COCOS2DXDIRECTORY\LIGHTGAME\COCOS2D\COCOS\2D\..\..\COCOS\PLATFORM\DESKTOP /IC:\COCOS2DXDIRECTORY\LIGHTGAME\COCOS2D\COCOS\2D\..\..\EXTERNAL\GLFW3\INCLUDE\WIN32 /I"C:\COCOS2DXDIRECTORY\LIGHTGAME\COCOS2D\COCOS\2D\..\..\EXTERNAL\WIN32-SPECIFIC\GLES\INCLUDE\OGLES" /IC:\COCOS2DXDIRECTORY\LIGHTGAME\COCOS2D\COCOS\2D\..\..\EXTERNAL\FREETYPE2\INCLUDE\WIN32\FREETYPE2 /IC:\COCOS2DXDIRECTORY\LIGHTGAME\COCOS2D\COCOS\2D\..\..\EXTERNAL\FREETYPE2\INCLUDE\WIN32\ /IC:\COCOS2DXDIRECTORY\LIGHTGAME\COCOS2D\COCOS\2D\..\..\EXTERNAL /ZI /nologo /W3 /WX- /Od /Oy- /D WIN32 /D _DEBUG /D _WINDOWS /D _USE_MATH_DEFINES /D GL_GLEXT_PROTOTYPES /D CC_ENABLE_CHIPMUNK_INTEGRATION=1 /D COCOS2D_DEBUG=1 /D _CRT_SECURE_NO_WARNINGS /D _SCL_SECURE_NO_WARNINGS /D _VARIADIC_MAX=10 /D _USING_V110_SDK71_ /D _UNICODE /D UNICODE /Gm- /EHsc /RTC1 /MDd /GS /fp:precise /Zc:wchar_t /Zc:forScope /Zc:inline /Fo"DEBUG.WIN32\\" /Fd"DEBUG.WIN32\VC140.PDB" /Gd /TP /wd4267 /wd4251 /wd4244 /analyze- C:\COCOS2DXDIRECTORY\LIGHTGAME\CLASSES\THEMESCENE.CPP
^C:\COCOS2DXDIRECTORY\LIGHTGAME\CLASSES\LIGHT.CPP
/c /IC:\COCOS2DXDIRECTORY\LIGHTGAME\COCOS2D\COCOS\2D\..\..\COCOS\AUDIO\INCLUDE /IC:\COCOS2DXDIRECTORY\LIGHTGAME\COCOS2D\COCOS\2D\..\..\EXTERNAL /IC:\COCOS2DXDIRECTORY\LIGHTGAME\COCOS2D\COCOS\2D\..\..\EXTERNAL\CHIPMUNK\INCLUDE\CHIPMUNK /IC:\COCOS2DXDIRECTORY\LIGHTGAME\COCOS2D\COCOS\2D\..\..\EXTENSIONS /I..\CLASSES /I.. /I"C:\COCOS2DXDIRECTORY\LIGHTGAME\COCOS2D\COCOS\2D\..\..\COCOS\EDITOR-SUPPORT" /IC:\COCOS2DXDIRECTORY\LIGHTGAME\COCOS2D\COCOS\2D\..\..\COCOS /IC:\COCOS2DXDIRECTORY\LIGHTGAME\COCOS2D\COCOS\2D\..\..\COCOS\PLATFORM /IC:\COCOS2DXDIRECTORY\LIGHTGAME\COCOS2D\COCOS\2D\..\..\COCOS\PLATFORM\DESKTOP /IC:\COCOS2DXDIRECTORY\LIGHTGAME\COCOS2D\COCOS\2D\..\..\EXTERNAL\GLFW3\INCLUDE\WIN32 /I"C:\COCOS2DXDIRECTORY\LIGHTGAME\COCOS2D\COCOS\2D\..\..\EXTERNAL\WIN32-SPECIFIC\GLES\INCLUDE\OGLES" /IC:\COCOS2DXDIRECTORY\LIGHTGAME\COCOS2D\COCOS\2D\..\..\EXTERNAL\FREETYPE2\INCLUDE\WIN32\FREETYPE2 /IC:\COCOS2DXDIRECTORY\LIGHTGAME\COCOS2D\COCOS\2D\..\..\EXTERNAL\FREETYPE2\INCLUDE\WIN32\ /IC:\COCOS2DXDIRECTORY\LIGHTGAME\COCOS2D\COCOS\2D\..\..\EXTERNAL /ZI /nologo /W3 /WX- /Od /Oy- /D WIN32 /D _DEBUG /D _WINDOWS /D _USE_MATH_DEFINES /D GL_GLEXT_PROTOTYPES /D CC_ENABLE_CHIPMUNK_INTEGRATION=1 /D COCOS2D_DEBUG=1 /D _CRT_SECURE_NO_WARNINGS /D _SCL_SECURE_NO_WARNINGS /D _VARIADIC_MAX=10 /D _USING_V110_SDK71_ /D _UNICODE /D UNICODE /Gm- /EHsc /RTC1 /MDd /GS /fp:precise /Zc:wchar_t /Zc:forScope /Zc:inline /Fo"DEBUG.WIN32\\" /Fd"DEBUG.WIN32\VC140.PDB" /Gd /TP /wd4267 /wd4251 /wd4244 /analyze- C:\COCOS2DXDIRECTORY\LIGHTGAME\CLASSES\LIGHT.CPP
^C:\COCOS2DXDIRECTORY\LIGHTGAME\CLASSES\APPDELEGATE.CPP
/c /IC:\COCOS2DXDIRECTORY\LIGHTGAME\COCOS2D\COCOS\2D\..\..\COCOS\AUDIO\INCLUDE /IC:\COCOS2DXDIRECTORY\LIGHTGAME\COCOS2D\COCOS\2D\..\..\EXTERNAL /IC:\COCOS2DXDIRECTORY\LIGHTGAME\COCOS2D\COCOS\2D\..\..\EXTERNAL\CHIPMUNK\INCLUDE\CHIPMUNK /IC:\COCOS2DXDIRECTORY\LIGHTGAME\COCOS2D\COCOS\2D\..\..\EXTENSIONS /I..\CLASSES /I.. /I"C:\COCOS2DXDIRECTORY\LIGHTGAME\COCOS2D\COCOS\2D\..\..\COCOS\EDITOR-SUPPORT" /IC:\COCOS2DXDIRECTORY\LIGHTGAME\COCOS2D\COCOS\2D\..\..\COCOS /IC:\COCOS2DXDIRECTORY\LIGHTGAME\COCOS2D\COCOS\2D\..\..\COCOS\PLATFORM /IC:\COCOS2DXDIRECTORY\LIGHTGAME\COCOS2D\COCOS\2D\..\..\COCOS\PLATFORM\DESKTOP /IC:\COCOS2DXDIRECTORY\LIGHTGAME\COCOS2D\COCOS\2D\..\..\EXTERNAL\GLFW3\INCLUDE\WIN32 /I"C:\COCOS2DXDIRECTORY\LIGHTGAME\COCOS2D\COCOS\2D\..\..\EXTERNAL\WIN32-SPECIFIC\GLES\INCLUDE\OGLES" /IC:\COCOS2DXDIRECTORY\LIGHTGAME\COCOS2D\COCOS\2D\..\..\EXTERNAL\FREETYPE2\INCLUDE\WIN32\FREETYPE2 /IC:\COCOS2DXDIRECTORY\LIGHTGAME\COCOS2D\COCOS\2D\..\..\EXTERNAL\FREETYPE2\INCLUDE\WIN32\ /IC:\COCOS2DXDIRECTORY\LIGHTGAME\COCOS2D\COCOS\2D\..\..\EXTERNAL /ZI /nologo /W3 /WX- /Od /Oy- /D WIN32 /D _DEBUG /D _WINDOWS /D _USE_MATH_DEFINES /D GL_GLEXT_PROTOTYPES /D CC_ENABLE_CHIPMUNK_INTEGRATION=1 /D COCOS2D_DEBUG=1 /D _CRT_SECURE_NO_WARNINGS /D _SCL_SECURE_NO_WARNINGS /D _VARIADIC_MAX=10 /D _USING_V110_SDK71_ /D _UNICODE /D UNICODE /Gm- /EHsc /RTC1 /MDd /GS /fp:precise /Zc:wchar_t /Zc:forScope /Zc:inline /Fo"DEBUG.WIN32\\" /Fd"DEBUG.WIN32\VC140.PDB" /Gd /TP /wd4267 /wd4251 /wd4244 /analyze- C:\COCOS2DXDIRECTORY\LIGHTGAME\CLASSES\APPDELEGATE.CPP
^C:\COCOS2DXDIRECTORY\MIRROR-MAZE-PUZZLE-GAME\CLASSES\DEFINEANDENUM.CPP
/c /I"C:\COCOS2DXDIRECTORY\MIRROR-MAZE-PUZZLE-GAME\COCOS2D\COCOS\2D\..\..\COCOS\AUDIO\INCLUDE" /I"C:\COCOS2DXDIRECTORY\MIRROR-MAZE-PUZZLE-GAME\COCOS2D\COCOS\2D\..\..\EXTERNAL" /I"C:\COCOS2DXDIRECTORY\MIRROR-MAZE-PUZZLE-GAME\COCOS2D\COCOS\2D\..\..\EXTERNAL\CHIPMUNK\INCLUDE\CHIPMUNK" /I"C:\COCOS2DXDIRECTORY\MIRROR-MAZE-PUZZLE-GAME\COCOS2D\COCOS\2D\..\..\EXTENSIONS" /I..\CLASSES /I.. /I"C:\COCOS2DXDIRECTORY\MIRROR-MAZE-PUZZLE-GAME\COCOS2D\COCOS\2D\..\..\COCOS\EDITOR-SUPPORT" /I"C:\COCOS2DXDIRECTORY\MIRROR-MAZE-PUZZLE-GAME\COCOS2D\COCOS\2D\..\..\COCOS" /I"C:\COCOS2DXDIRECTORY\MIRROR-MAZE-PUZZLE-GAME\COCOS2D\COCOS\2D\..\..\COCOS\PLATFORM" /I"C:\COCOS2DXDIRECTORY\MIRROR-MAZE-PUZZLE-GAME\COCOS2D\COCOS\2D\..\..\COCOS\PLATFORM\DESKTOP" /I"C:\COCOS2DXDIRECTORY\MIRROR-MAZE-PUZZLE-GAME\COCOS2D\COCOS\2D\..\..\EXTERNAL\GLFW3\INCLUDE\WIN32" /I"C:\COCOS2DXDIRECTORY\MIRROR-MAZE-PUZZLE-GAME\COCOS2D\COCOS\2D\..\..\EXTERNAL\WIN32-SPECIFIC\GLES\INCLUDE\OGLES" /I"C:\COCOS2DXDIRECTORY\MIRROR-MAZE-PUZZLE-GAME\COCOS2D\COCOS\2D\..\..\EXTERNAL\FREETYPE2\INCLUDE\WIN32\FREETYPE2" /I"C:\COCOS2DXDIRECTORY\MIRROR-MAZE-PUZZLE-GAME\COCOS2D\COCOS\2D\..\..\EXTERNAL\FREETYPE2\INCLUDE\WIN32\\" /I"C:\COCOS2DXDIRECTORY\MIRROR-MAZE-PUZZLE-GAME\COCOS2D\COCOS\2D\..\..\EXTERNAL" /ZI /nologo /W3 /WX- /Od /Oy- /D WIN32 /D _DEBUG /D _WINDOWS /D _USE_MATH_DEFINES /D GL_GLEXT_PROTOTYPES /D CC_ENABLE_CHIPMUNK_INTEGRATION=1 /D COCOS2D_DEBUG=1 /D _CRT_SECURE_NO_WARNINGS /D _SCL_SECURE_NO_WARNINGS /D _VARIADIC_MAX=10 /D _USING_V110_SDK71_ /D _UNICODE /D UNICODE /Gm- /EHsc /RTC1 /MDd /GS /fp:precise /Zc:wchar_t /Zc:forScope /Zc:inline /Fo"DEBUG.WIN32\\" /Fd"DEBUG.WIN32\VC140.PDB" /Gd /TP /wd4267 /wd4251 /wd4244 /analyze- C:\COCOS2DXDIRECTORY\MIRROR-MAZE-PUZZLE-GAME\CLASSES\DEFINEANDENUM.CPP
^C:\COCOS2DXDIRECTORY\MIRROR-MAZE-PUZZLE-GAME\CLASSES\CDOORTRIGER.CPP
/c /I"C:\COCOS2DXDIRECTORY\MIRROR-MAZE-PUZZLE-GAME\COCOS2D\COCOS\2D\..\..\COCOS\AUDIO\INCLUDE" /I"C:\COCOS2DXDIRECTORY\MIRROR-MAZE-PUZZLE-GAME\COCOS2D\COCOS\2D\..\..\EXTERNAL" /I"C:\COCOS2DXDIRECTORY\MIRROR-MAZE-PUZZLE-GAME\COCOS2D\COCOS\2D\..\..\EXTERNAL\CHIPMUNK\INCLUDE\CHIPMUNK" /I"C:\COCOS2DXDIRECTORY\MIRROR-MAZE-PUZZLE-GAME\COCOS2D\COCOS\2D\..\..\EXTENSIONS" /I..\CLASSES /I.. /I"C:\COCOS2DXDIRECTORY\MIRROR-MAZE-PUZZLE-GAME\COCOS2D\COCOS\2D\..\..\COCOS\EDITOR-SUPPORT" /I"C:\COCOS2DXDIRECTORY\MIRROR-MAZE-PUZZLE-GAME\COCOS2D\COCOS\2D\..\..\COCOS" /I"C:\COCOS2DXDIRECTORY\MIRROR-MAZE-PUZZLE-GAME\COCOS2D\COCOS\2D\..\..\COCOS\PLATFORM" /I"C:\COCOS2DXDIRECTORY\MIRROR-MAZE-PUZZLE-GAME\COCOS2D\COCOS\2D\..\..\COCOS\PLATFORM\DESKTOP" /I"C:\COCOS2DXDIRECTORY\MIRROR-MAZE-PUZZLE-GAME\COCOS2D\COCOS\2D\..\..\EXTERNAL\GLFW3\INCLUDE\WIN32" /I"C:\COCOS2DXDIRECTORY\MIRROR-MAZE-PUZZLE-GAME\COCOS2D\COCOS\2D\..\..\EXTERNAL\WIN32-SPECIFIC\GLES\INCLUDE\OGLES" /I"C:\COCOS2DXDIRECTORY\MIRROR-MAZE-PUZZLE-GAME\COCOS2D\COCOS\2D\..\..\EXTERNAL\FREETYPE2\INCLUDE\WIN32\FREETYPE2" /I"C:\COCOS2DXDIRECTORY\MIRROR-MAZE-PUZZLE-GAME\COCOS2D\COCOS\2D\..\..\EXTERNAL\FREETYPE2\INCLUDE\WIN32\\" /I"C:\COCOS2DXDIRECTORY\MIRROR-MAZE-PUZZLE-GAME\COCOS2D\COCOS\2D\..\..\EXTERNAL" /ZI /nologo /W3 /WX- /Od /Oy- /D WIN32 /D _DEBUG /D _WINDOWS /D _USE_MATH_DEFINES /D GL_GLEXT_PROTOTYPES /D CC_ENABLE_CHIPMUNK_INTEGRATION=1 /D COCOS2D_DEBUG=1 /D _CRT_SECURE_NO_WARNINGS /D _SCL_SECURE_NO_WARNINGS /D _VARIADIC_MAX=10 /D _USING_V110_SDK71_ /D _UNICODE /D UNICODE /Gm- /EHsc /RTC1 /MDd /GS /fp:precise /Zc:wchar_t /Zc:forScope /Zc:inline /Fo"DEBUG.WIN32\\" /Fd"DEBUG.WIN32\VC140.PDB" /Gd /TP /wd4267 /wd4251 /wd4244 /analyze- C:\COCOS2DXDIRECTORY\MIRROR-MAZE-PUZZLE-GAME\CLASSES\CDOORTRIGER.CPP
^C:\COCOS2DXDIRECTORY\MIRROR-MAZE-PUZZLE-GAME\CLASSES\LIGHT.CPP
/c /I"C:\COCOS2DXDIRECTORY\MIRROR-MAZE-PUZZLE-GAME\COCOS2D\COCOS\2D\..\..\COCOS\AUDIO\INCLUDE" /I"C:\COCOS2DXDIRECTORY\MIRROR-MAZE-PUZZLE-GAME\COCOS2D\COCOS\2D\..\..\EXTERNAL" /I"C:\COCOS2DXDIRECTORY\MIRROR-MAZE-PUZZLE-GAME\COCOS2D\COCOS\2D\..\..\EXTERNAL\CHIPMUNK\INCLUDE\CHIPMUNK" /I"C:\COCOS2DXDIRECTORY\MIRROR-MAZE-PUZZLE-GAME\COCOS2D\COCOS\2D\..\..\EXTENSIONS" /I..\CLASSES /I.. /I"C:\COCOS2DXDIRECTORY\MIRROR-MAZE-PUZZLE-GAME\COCOS2D\COCOS\2D\..\..\COCOS\EDITOR-SUPPORT" /I"C:\COCOS2DXDIRECTORY\MIRROR-MAZE-PUZZLE-GAME\COCOS2D\COCOS\2D\..\..\COCOS" /I"C:\COCOS2DXDIRECTORY\MIRROR-MAZE-PUZZLE-GAME\COCOS2D\COCOS\2D\..\..\COCOS\PLATFORM" /I"C:\COCOS2DXDIRECTORY\MIRROR-MAZE-PUZZLE-GAME\COCOS2D\COCOS\2D\..\..\COCOS\PLATFORM\DESKTOP" /I"C:\COCOS2DXDIRECTORY\MIRROR-MAZE-PUZZLE-GAME\COCOS2D\COCOS\2D\..\..\EXTERNAL\GLFW3\INCLUDE\WIN32" /I"C:\COCOS2DXDIRECTORY\MIRROR-MAZE-PUZZLE-GAME\COCOS2D\COCOS\2D\..\..\EXTERNAL\WIN32-SPECIFIC\GLES\INCLUDE\OGLES" /I"C:\COCOS2DXDIRECTORY\MIRROR-MAZE-PUZZLE-GAME\COCOS2D\COCOS\2D\..\..\EXTERNAL\FREETYPE2\INCLUDE\WIN32\FREETYPE2" /I"C:\COCOS2DXDIRECTORY\MIRROR-MAZE-PUZZLE-GAME\COCOS2D\COCOS\2D\..\..\EXTERNAL\FREETYPE2\INCLUDE\WIN32\\" /I"C:\COCOS2DXDIRECTORY\MIRROR-MAZE-PUZZLE-GAME\COCOS2D\COCOS\2D\..\..\EXTERNAL" /ZI /nologo /W3 /WX- /Od /Oy- /D WIN32 /D _DEBUG /D _WINDOWS /D _USE_MATH_DEFINES /D GL_GLEXT_PROTOTYPES /D CC_ENABLE_CHIPMUNK_INTEGRATION=1 /D COCOS2D_DEBUG=1 /D _CRT_SECURE_NO_WARNINGS /D _SCL_SECURE_NO_WARNINGS /D _VARIADIC_MAX=10 /D _USING_V110_SDK71_ /D _UNICODE /D UNICODE /Gm- /EHsc /RTC1 /MDd /GS /fp:precise /Zc:wchar_t /Zc:forScope /Zc:inline /Fo"DEBUG.WIN32\\" /Fd"DEBUG.WIN32\VC140.PDB" /Gd /TP /wd4267 /wd4251 /wd4244 /analyze- C:\COCOS2DXDIRECTORY\MIRROR-MAZE-PUZZLE-GAME\CLASSES\LIGHT.CPP
^C:\COCOS2DXDIRECTORY\MIRROR-MAZE-PUZZLE-GAME\CLASSES\CMAP.CPP
/c /I"C:\COCOS2DXDIRECTORY\MIRROR-MAZE-PUZZLE-GAME\COCOS2D\COCOS\2D\..\..\COCOS\AUDIO\INCLUDE" /I"C:\COCOS2DXDIRECTORY\MIRROR-MAZE-PUZZLE-GAME\COCOS2D\COCOS\2D\..\..\EXTERNAL" /I"C:\COCOS2DXDIRECTORY\MIRROR-MAZE-PUZZLE-GAME\COCOS2D\COCOS\2D\..\..\EXTERNAL\CHIPMUNK\INCLUDE\CHIPMUNK" /I"C:\COCOS2DXDIRECTORY\MIRROR-MAZE-PUZZLE-GAME\COCOS2D\COCOS\2D\..\..\EXTENSIONS" /I..\CLASSES /I.. /I"C:\COCOS2DXDIRECTORY\MIRROR-MAZE-PUZZLE-GAME\COCOS2D\COCOS\2D\..\..\COCOS\EDITOR-SUPPORT" /I"C:\COCOS2DXDIRECTORY\MIRROR-MAZE-PUZZLE-GAME\COCOS2D\COCOS\2D\..\..\COCOS" /I"C:\COCOS2DXDIRECTORY\MIRROR-MAZE-PUZZLE-GAME\COCOS2D\COCOS\2D\..\..\COCOS\PLATFORM" /I"C:\COCOS2DXDIRECTORY\MIRROR-MAZE-PUZZLE-GAME\COCOS2D\COCOS\2D\..\..\COCOS\PLATFORM\DESKTOP" /I"C:\COCOS2DXDIRECTORY\MIRROR-MAZE-PUZZLE-GAME\COCOS2D\COCOS\2D\..\..\EXTERNAL\GLFW3\INCLUDE\WIN32" /I"C:\COCOS2DXDIRECTORY\MIRROR-MAZE-PUZZLE-GAME\COCOS2D\COCOS\2D\..\..\EXTERNAL\WIN32-SPECIFIC\GLES\INCLUDE\OGLES" /I"C:\COCOS2DXDIRECTORY\MIRROR-MAZE-PUZZLE-GAME\COCOS2D\COCOS\2D\..\..\EXTERNAL\FREETYPE2\INCLUDE\WIN32\FREETYPE2" /I"C:\COCOS2DXDIRECTORY\MIRROR-MAZE-PUZZLE-GAME\COCOS2D\COCOS\2D\..\..\EXTERNAL\FREETYPE2\INCLUDE\WIN32\\" /I"C:\COCOS2DXDIRECTORY\MIRROR-MAZE-PUZZLE-GAME\COCOS2D\COCOS\2D\..\..\EXTERNAL" /ZI /nologo /W3 /WX- /Od /Oy- /D WIN32 /D _DEBUG /D _WINDOWS /D _USE_MATH_DEFINES /D GL_GLEXT_PROTOTYPES /D CC_ENABLE_CHIPMUNK_INTEGRATION=1 /D COCOS2D_DEBUG=1 /D _CRT_SECURE_NO_WARNINGS /D _SCL_SECURE_NO_WARNINGS /D _VARIADIC_MAX=10 /D _USING_V110_SDK71_ /D _UNICODE /D UNICODE /Gm- /EHsc /RTC1 /MDd /GS /fp:precise /Zc:wchar_t /Zc:forScope /Zc:inline /Fo"DEBUG.WIN32\\" /Fd"DEBUG.WIN32\VC140.PDB" /Gd /TP /wd4267 /wd4251 /wd4244 /analyze- C:\COCOS2DXDIRECTORY\MIRROR-MAZE-PUZZLE-GAME\CLASSES\CMAP.CPP
^C:\COCOS2DXDIRECTORY\MIRROR-MAZE-PUZZLE-GAME\PROJ.WIN32\MAIN.CPP
/c /I"C:\COCOS2DXDIRECTORY\MIRROR-MAZE-PUZZLE-GAME\COCOS2D\COCOS\2D\..\..\COCOS\AUDIO\INCLUDE" /I"C:\COCOS2DXDIRECTORY\MIRROR-MAZE-PUZZLE-GAME\COCOS2D\COCOS\2D\..\..\EXTERNAL" /I"C:\COCOS2DXDIRECTORY\MIRROR-MAZE-PUZZLE-GAME\COCOS2D\COCOS\2D\..\..\EXTERNAL\CHIPMUNK\INCLUDE\CHIPMUNK" /I"C:\COCOS2DXDIRECTORY\MIRROR-MAZE-PUZZLE-GAME\COCOS2D\COCOS\2D\..\..\EXTENSIONS" /I..\CLASSES /I.. /I"C:\COCOS2DXDIRECTORY\MIRROR-MAZE-PUZZLE-GAME\COCOS2D\COCOS\2D\..\..\COCOS\EDITOR-SUPPORT" /I"C:\COCOS2DXDIRECTORY\MIRROR-MAZE-PUZZLE-GAME\COCOS2D\COCOS\2D\..\..\COCOS" /I"C:\COCOS2DXDIRECTORY\MIRROR-MAZE-PUZZLE-GAME\COCOS2D\COCOS\2D\..\..\COCOS\PLATFORM" /I"C:\COCOS2DXDIRECTORY\MIRROR-MAZE-PUZZLE-GAME\COCOS2D\COCOS\2D\..\..\COCOS\PLATFORM\DESKTOP" /I"C:\COCOS2DXDIRECTORY\MIRROR-MAZE-PUZZLE-GAME\COCOS2D\COCOS\2D\..\..\EXTERNAL\GLFW3\INCLUDE\WIN32" /I"C:\COCOS2DXDIRECTORY\MIRROR-MAZE-PUZZLE-GAME\COCOS2D\COCOS\2D\..\..\EXTERNAL\WIN32-SPECIFIC\GLES\INCLUDE\OGLES" /I"C:\COCOS2DXDIRECTORY\MIRROR-MAZE-PUZZLE-GAME\COCOS2D\COCOS\2D\..\..\EXTERNAL\FREETYPE2\INCLUDE\WIN32\FREETYPE2" /I"C:\COCOS2DXDIRECTORY\MIRROR-MAZE-PUZZLE-GAME\COCOS2D\COCOS\2D\..\..\EXTERNAL\FREETYPE2\INCLUDE\WIN32\\" /I"C:\COCOS2DXDIRECTORY\MIRROR-MAZE-PUZZLE-GAME\COCOS2D\COCOS\2D\..\..\EXTERNAL" /ZI /nologo /W3 /WX- /Od /Oy- /D WIN32 /D _DEBUG /D _WINDOWS /D _USE_MATH_DEFINES /D GL_GLEXT_PROTOTYPES /D CC_ENABLE_CHIPMUNK_INTEGRATION=1 /D COCOS2D_DEBUG=1 /D _CRT_SECURE_NO_WARNINGS /D _SCL_SECURE_NO_WARNINGS /D _VARIADIC_MAX=10 /D _USING_V110_SDK71_ /D _UNICODE /D UNICODE /Gm- /EHsc /RTC1 /MDd /GS /fp:precise /Zc:wchar_t /Zc:forScope /Zc:inline /Fo"DEBUG.WIN32\\" /Fd"DEBUG.WIN32\VC140.PDB" /Gd /TP /wd4267 /wd4251 /wd4244 /analyze- C:\COCOS2DXDIRECTORY\MIRROR-MAZE-PUZZLE-GAME\PROJ.WIN32\MAIN.CPP
^C:\COCOS2DXDIRECTORY\MIRROR-MAZE-PUZZLE-GAME\CLASSES\APPDELEGATE.CPP
/c /I"C:\COCOS2DXDIRECTORY\MIRROR-MAZE-PUZZLE-GAME\COCOS2D\COCOS\2D\..\..\COCOS\AUDIO\INCLUDE" /I"C:\COCOS2DXDIRECTORY\MIRROR-MAZE-PUZZLE-GAME\COCOS2D\COCOS\2D\..\..\EXTERNAL" /I"C:\COCOS2DXDIRECTORY\MIRROR-MAZE-PUZZLE-GAME\COCOS2D\COCOS\2D\..\..\EXTERNAL\CHIPMUNK\INCLUDE\CHIPMUNK" /I"C:\COCOS2DXDIRECTORY\MIRROR-MAZE-PUZZLE-GAME\COCOS2D\COCOS\2D\..\..\EXTENSIONS" /I..\CLASSES /I.. /I"C:\COCOS2DXDIRECTORY\MIRROR-MAZE-PUZZLE-GAME\COCOS2D\COCOS\2D\..\..\COCOS\EDITOR-SUPPORT" /I"C:\COCOS2DXDIRECTORY\MIRROR-MAZE-PUZZLE-GAME\COCOS2D\COCOS\2D\..\..\COCOS" /I"C:\COCOS2DXDIRECTORY\MIRROR-MAZE-PUZZLE-GAME\COCOS2D\COCOS\2D\..\..\COCOS\PLATFORM" /I"C:\COCOS2DXDIRECTORY\MIRROR-MAZE-PUZZLE-GAME\COCOS2D\COCOS\2D\..\..\COCOS\PLATFORM\DESKTOP" /I"C:\COCOS2DXDIRECTORY\MIRROR-MAZE-PUZZLE-GAME\COCOS2D\COCOS\2D\..\..\EXTERNAL\GLFW3\INCLUDE\WIN32" /I"C:\COCOS2DXDIRECTORY\MIRROR-MAZE-PUZZLE-GAME\COCOS2D\COCOS\2D\..\..\EXTERNAL\WIN32-SPECIFIC\GLES\INCLUDE\OGLES" /I"C:\COCOS2DXDIRECTORY\MIRROR-MAZE-PUZZLE-GAME\COCOS2D\COCOS\2D\..\..\EXTERNAL\FREETYPE2\INCLUDE\WIN32\FREETYPE2" /I"C:\COCOS2DXDIRECTORY\MIRROR-MAZE-PUZZLE-GAME\COCOS2D\COCOS\2D\..\..\EXTERNAL\FREETYPE2\INCLUDE\WIN32\\" /I"C:\COCOS2DXDIRECTORY\MIRROR-MAZE-PUZZLE-GAME\COCOS2D\COCOS\2D\..\..\EXTERNAL" /ZI /nologo /W3 /WX- /Od /Oy- /D WIN32 /D _DEBUG /D _WINDOWS /D _USE_MATH_DEFINES /D GL_GLEXT_PROTOTYPES /D CC_ENABLE_CHIPMUNK_INTEGRATION=1 /D COCOS2D_DEBUG=1 /D _CRT_SECURE_NO_WARNINGS /D _SCL_SECURE_NO_WARNINGS /D _VARIADIC_MAX=10 /D _USING_V110_SDK71_ /D _UNICODE /D UNICODE /Gm- /EHsc /RTC1 /MDd /GS /fp:precise /Zc:wchar_t /Zc:forScope /Zc:inline /Fo"DEBUG.WIN32\\" /Fd"DEBUG.WIN32\VC140.PDB" /Gd /TP /wd4267 /wd4251 /wd4244 /analyze- C:\COCOS2DXDIRECTORY\MIRROR-MAZE-PUZZLE-GAME\CLASSES\APPDELEGATE.CPP
^C:\COCOS2DXDIRECTORY\MIRROR-MAZE-PUZZLE-GAME\CLASSES\LEVELSELECTSCENE.CPP
/c /I"C:\COCOS2DXDIRECTORY\MIRROR-MAZE-PUZZLE-GAME\COCOS2D\COCOS\2D\..\..\COCOS\AUDIO\INCLUDE" /I"C:\COCOS2DXDIRECTORY\MIRROR-MAZE-PUZZLE-GAME\COCOS2D\COCOS\2D\..\..\EXTERNAL" /I"C:\COCOS2DXDIRECTORY\MIRROR-MAZE-PUZZLE-GAME\COCOS2D\COCOS\2D\..\..\EXTERNAL\CHIPMUNK\INCLUDE\CHIPMUNK" /I"C:\COCOS2DXDIRECTORY\MIRROR-MAZE-PUZZLE-GAME\COCOS2D\COCOS\2D\..\..\EXTENSIONS" /I..\CLASSES /I.. /I"C:\COCOS2DXDIRECTORY\MIRROR-MAZE-PUZZLE-GAME\COCOS2D\COCOS\2D\..\..\COCOS\EDITOR-SUPPORT" /I"C:\COCOS2DXDIRECTORY\MIRROR-MAZE-PUZZLE-GAME\COCOS2D\COCOS\2D\..\..\COCOS" /I"C:\COCOS2DXDIRECTORY\MIRROR-MAZE-PUZZLE-GAME\COCOS2D\COCOS\2D\..\..\COCOS\PLATFORM" /I"C:\COCOS2DXDIRECTORY\MIRROR-MAZE-PUZZLE-GAME\COCOS2D\COCOS\2D\..\..\COCOS\PLATFORM\DESKTOP" /I"C:\COCOS2DXDIRECTORY\MIRROR-MAZE-PUZZLE-GAME\COCOS2D\COCOS\2D\..\..\EXTERNAL\GLFW3\INCLUDE\WIN32" /I"C:\COCOS2DXDIRECTORY\MIRROR-MAZE-PUZZLE-GAME\COCOS2D\COCOS\2D\..\..\EXTERNAL\WIN32-SPECIFIC\GLES\INCLUDE\OGLES" /I"C:\COCOS2DXDIRECTORY\MIRROR-MAZE-PUZZLE-GAME\COCOS2D\COCOS\2D\..\..\EXTERNAL\FREETYPE2\INCLUDE\WIN32\FREETYPE2" /I"C:\COCOS2DXDIRECTORY\MIRROR-MAZE-PUZZLE-GAME\COCOS2D\COCOS\2D\..\..\EXTERNAL\FREETYPE2\INCLUDE\WIN32\\" /I"C:\COCOS2DXDIRECTORY\MIRROR-MAZE-PUZZLE-GAME\COCOS2D\COCOS\2D\..\..\EXTERNAL" /ZI /nologo /W3 /WX- /Od /Oy- /D WIN32 /D _DEBUG /D _WINDOWS /D _USE_MATH_DEFINES /D GL_GLEXT_PROTOTYPES /D CC_ENABLE_CHIPMUNK_INTEGRATION=1 /D COCOS2D_DEBUG=1 /D _CRT_SECURE_NO_WARNINGS /D _SCL_SECURE_NO_WARNINGS /D _VARIADIC_MAX=10 /D _USING_V110_SDK71_ /D _UNICODE /D UNICODE /Gm- /EHsc /RTC1 /MDd /GS /fp:precise /Zc:wchar_t /Zc:forScope /Zc:inline /Fo"DEBUG.WIN32\\" /Fd"DEBUG.WIN32\VC140.PDB" /Gd /TP /wd4267 /wd4251 /wd4244 /analyze- C:\COCOS2DXDIRECTORY\MIRROR-MAZE-PUZZLE-GAME\CLASSES\LEVELSELECTSCENE.CPP
^C:\COCOS2DXDIRECTORY\MIRROR-MAZE-PUZZLE-GAME\CLASSES\BLOCK.CPP
/c /I"C:\COCOS2DXDIRECTORY\MIRROR-MAZE-PUZZLE-GAME\COCOS2D\COCOS\2D\..\..\COCOS\AUDIO\INCLUDE" /I"C:\COCOS2DXDIRECTORY\MIRROR-MAZE-PUZZLE-GAME\COCOS2D\COCOS\2D\..\..\EXTERNAL" /I"C:\COCOS2DXDIRECTORY\MIRROR-MAZE-PUZZLE-GAME\COCOS2D\COCOS\2D\..\..\EXTERNAL\CHIPMUNK\INCLUDE\CHIPMUNK" /I"C:\COCOS2DXDIRECTORY\MIRROR-MAZE-PUZZLE-GAME\COCOS2D\COCOS\2D\..\..\EXTENSIONS" /I..\CLASSES /I.. /I"C:\COCOS2DXDIRECTORY\MIRROR-MAZE-PUZZLE-GAME\COCOS2D\COCOS\2D\..\..\COCOS\EDITOR-SUPPORT" /I"C:\COCOS2DXDIRECTORY\MIRROR-MAZE-PUZZLE-GAME\COCOS2D\COCOS\2D\..\..\COCOS" /I"C:\COCOS2DXDIRECTORY\MIRROR-MAZE-PUZZLE-GAME\COCOS2D\COCOS\2D\..\..\COCOS\PLATFORM" /I"C:\COCOS2DXDIRECTORY\MIRROR-MAZE-PUZZLE-GAME\COCOS2D\COCOS\2D\..\..\COCOS\PLATFORM\DESKTOP" /I"C:\COCOS2DXDIRECTORY\MIRROR-MAZE-PUZZLE-GAME\COCOS2D\COCOS\2D\..\..\EXTERNAL\GLFW3\INCLUDE\WIN32" /I"C:\COCOS2DXDIRECTORY\MIRROR-MAZE-PUZZLE-GAME\COCOS2D\COCOS\2D\..\..\EXTERNAL\WIN32-SPECIFIC\GLES\INCLUDE\OGLES" /I"C:\COCOS2DXDIRECTORY\MIRROR-MAZE-PUZZLE-GAME\COCOS2D\COCOS\2D\..\..\EXTERNAL\FREETYPE2\INCLUDE\WIN32\FREETYPE2" /I"C:\COCOS2DXDIRECTORY\MIRROR-MAZE-PUZZLE-GAME\COCOS2D\COCOS\2D\..\..\EXTERNAL\FREETYPE2\INCLUDE\WIN32\\" /I"C:\COCOS2DXDIRECTORY\MIRROR-MAZE-PUZZLE-GAME\COCOS2D\COCOS\2D\..\..\EXTERNAL" /ZI /nologo /W3 /WX- /Od /Oy- /D WIN32 /D _DEBUG /D _WINDOWS /D _USE_MATH_DEFINES /D GL_GLEXT_PROTOTYPES /D CC_ENABLE_CHIPMUNK_INTEGRATION=1 /D COCOS2D_DEBUG=1 /D _CRT_SECURE_NO_WARNINGS /D _SCL_SECURE_NO_WARNINGS /D _VARIADIC_MAX=10 /D _USING_V110_SDK71_ /D _UNICODE /D UNICODE /Gm- /EHsc /RTC1 /MDd /GS /fp:precise /Zc:wchar_t /Zc:forScope /Zc:inline /Fo"DEBUG.WIN32\\" /Fd"DEBUG.WIN32\VC140.PDB" /Gd /TP /wd4267 /wd4251 /wd4244 /analyze- C:\COCOS2DXDIRECTORY\MIRROR-MAZE-PUZZLE-GAME\CLASSES\BLOCK.CPP
^C:\COCOS2DXDIRECTORY\MIRROR-MAZE-PUZZLE-GAME\CLASSES\CAUDIO.CPP
/c /I"C:\COCOS2DXDIRECTORY\MIRROR-MAZE-PUZZLE-GAME\COCOS2D\COCOS\2D\..\..\COCOS\AUDIO\INCLUDE" /I"C:\COCOS2DXDIRECTORY\MIRROR-MAZE-PUZZLE-GAME\COCOS2D\COCOS\2D\..\..\EXTERNAL" /I"C:\COCOS2DXDIRECTORY\MIRROR-MAZE-PUZZLE-GAME\COCOS2D\COCOS\2D\..\..\EXTERNAL\CHIPMUNK\INCLUDE\CHIPMUNK" /I"C:\COCOS2DXDIRECTORY\MIRROR-MAZE-PUZZLE-GAME\COCOS2D\COCOS\2D\..\..\EXTENSIONS" /I..\CLASSES /I.. /I"C:\COCOS2DXDIRECTORY\MIRROR-MAZE-PUZZLE-GAME\COCOS2D\COCOS\2D\..\..\COCOS\EDITOR-SUPPORT" /I"C:\COCOS2DXDIRECTORY\MIRROR-MAZE-PUZZLE-GAME\COCOS2D\COCOS\2D\..\..\COCOS" /I"C:\COCOS2DXDIRECTORY\MIRROR-MAZE-PUZZLE-GAME\COCOS2D\COCOS\2D\..\..\COCOS\PLATFORM" /I"C:\COCOS2DXDIRECTORY\MIRROR-MAZE-PUZZLE-GAME\COCOS2D\COCOS\2D\..\..\COCOS\PLATFORM\DESKTOP" /I"C:\COCOS2DXDIRECTORY\MIRROR-MAZE-PUZZLE-GAME\COCOS2D\COCOS\2D\..\..\EXTERNAL\GLFW3\INCLUDE\WIN32" /I"C:\COCOS2DXDIRECTORY\MIRROR-MAZE-PUZZLE-GAME\COCOS2D\COCOS\2D\..\..\EXTERNAL\WIN32-SPECIFIC\GLES\INCLUDE\OGLES" /I"C:\COCOS2DXDIRECTORY\MIRROR-MAZE-PUZZLE-GAME\COCOS2D\COCOS\2D\..\..\EXTERNAL\FREETYPE2\INCLUDE\WIN32\FREETYPE2" /I"C:\COCOS2DXDIRECTORY\MIRROR-MAZE-PUZZLE-GAME\COCOS2D\COCOS\2D\..\..\EXTERNAL\FREETYPE2\INCLUDE\WIN32\\" /I"C:\COCOS2DXDIRECTORY\MIRROR-MAZE-PUZZLE-GAME\COCOS2D\COCOS\2D\..\..\EXTERNAL" /ZI /nologo /W3 /WX- /Od /Oy- /D WIN32 /D _DEBUG /D _WINDOWS /D _USE_MATH_DEFINES /D GL_GLEXT_PROTOTYPES /D CC_ENABLE_CHIPMUNK_INTEGRATION=1 /D COCOS2D_DEBUG=1 /D _CRT_SECURE_NO_WARNINGS /D _SCL_SECURE_NO_WARNINGS /D _VARIADIC_MAX=10 /D _USING_V110_SDK71_ /D _UNICODE /D UNICODE /Gm- /EHsc /RTC1 /MDd /GS /fp:precise /Zc:wchar_t /Zc:forScope /Zc:inline /Fo"DEBUG.WIN32\\" /Fd"DEBUG.WIN32\VC140.PDB" /Gd /TP /wd4267 /wd4251 /wd4244 /analyze- C:\COCOS2DXDIRECTORY\MIRROR-MAZE-PUZZLE-GAME\CLASSES\CAUDIO.CPP
^C:\COCOS2DXDIRECTORY\MIRROR-MAZE-PUZZLE-GAME\CLASSES\LIGHTGAMESCENE.CPP
/c /I"C:\COCOS2DXDIRECTORY\MIRROR-MAZE-PUZZLE-GAME\COCOS2D\COCOS\2D\..\..\COCOS\AUDIO\INCLUDE" /I"C:\COCOS2DXDIRECTORY\MIRROR-MAZE-PUZZLE-GAME\COCOS2D\COCOS\2D\..\..\EXTERNAL" /I"C:\COCOS2DXDIRECTORY\MIRROR-MAZE-PUZZLE-GAME\COCOS2D\COCOS\2D\..\..\EXTERNAL\CHIPMUNK\INCLUDE\CHIPMUNK" /I"C:\COCOS2DXDIRECTORY\MIRROR-MAZE-PUZZLE-GAME\COCOS2D\COCOS\2D\..\..\EXTENSIONS" /I..\CLASSES /I.. /I"C:\COCOS2DXDIRECTORY\MIRROR-MAZE-PUZZLE-GAME\COCOS2D\COCOS\2D\..\..\COCOS\EDITOR-SUPPORT" /I"C:\COCOS2DXDIRECTORY\MIRROR-MAZE-PUZZLE-GAME\COCOS2D\COCOS\2D\..\..\COCOS" /I"C:\COCOS2DXDIRECTORY\MIRROR-MAZE-PUZZLE-GAME\COCOS2D\COCOS\2D\..\..\COCOS\PLATFORM" /I"C:\COCOS2DXDIRECTORY\MIRROR-MAZE-PUZZLE-GAME\COCOS2D\COCOS\2D\..\..\COCOS\PLATFORM\DESKTOP" /I"C:\COCOS2DXDIRECTORY\MIRROR-MAZE-PUZZLE-GAME\COCOS2D\COCOS\2D\..\..\EXTERNAL\GLFW3\INCLUDE\WIN32" /I"C:\COCOS2DXDIRECTORY\MIRROR-MAZE-PUZZLE-GAME\COCOS2D\COCOS\2D\..\..\EXTERNAL\WIN32-SPECIFIC\GLES\INCLUDE\OGLES" /I"C:\COCOS2DXDIRECTORY\MIRROR-MAZE-PUZZLE-GAME\COCOS2D\COCOS\2D\..\..\EXTERNAL\FREETYPE2\INCLUDE\WIN32\FREETYPE2" /I"C:\COCOS2DXDIRECTORY\MIRROR-MAZE-PUZZLE-GAME\COCOS2D\COCOS\2D\..\..\EXTERNAL\FREETYPE2\INCLUDE\WIN32\\" /I"C:\COCOS2DXDIRECTORY\MIRROR-MAZE-PUZZLE-GAME\COCOS2D\COCOS\2D\..\..\EXTERNAL" /ZI /nologo /W3 /WX- /Od /Oy- /D WIN32 /D _DEBUG /D _WINDOWS /D _USE_MATH_DEFINES /D GL_GLEXT_PROTOTYPES /D CC_ENABLE_CHIPMUNK_INTEGRATION=1 /D COCOS2D_DEBUG=1 /D _CRT_SECURE_NO_WARNINGS /D _SCL_SECURE_NO_WARNINGS /D _VARIADIC_MAX=10 /D _USING_V110_SDK71_ /D _UNICODE /D UNICODE /Gm- /EHsc /RTC1 /MDd /GS /fp:precise /Zc:wchar_t /Zc:forScope /Zc:inline /Fo"DEBUG.WIN32\\" /Fd"DEBUG.WIN32\VC140.PDB" /Gd /TP /wd4267 /wd4251 /wd4244 /analyze- C:\COCOS2DXDIRECTORY\MIRROR-MAZE-PUZZLE-GAME\CLASSES\LIGHTGAMESCENE.CPP
^C:\COCOS2DXDIRECTORY\MIRROR-MAZE-PUZZLE-GAME\CLASSES\THEMESCENE.CPP
/c /I"C:\COCOS2DXDIRECTORY\MIRROR-MAZE-PUZZLE-GAME\COCOS2D\COCOS\2D\..\..\COCOS\AUDIO\INCLUDE" /I"C:\COCOS2DXDIRECTORY\MIRROR-MAZE-PUZZLE-GAME\COCOS2D\COCOS\2D\..\..\EXTERNAL" /I"C:\COCOS2DXDIRECTORY\MIRROR-MAZE-PUZZLE-GAME\COCOS2D\COCOS\2D\..\..\EXTERNAL\CHIPMUNK\INCLUDE\CHIPMUNK" /I"C:\COCOS2DXDIRECTORY\MIRROR-MAZE-PUZZLE-GAME\COCOS2D\COCOS\2D\..\..\EXTENSIONS" /I..\CLASSES /I.. /I"C:\COCOS2DXDIRECTORY\MIRROR-MAZE-PUZZLE-GAME\COCOS2D\COCOS\2D\..\..\COCOS\EDITOR-SUPPORT" /I"C:\COCOS2DXDIRECTORY\MIRROR-MAZE-PUZZLE-GAME\COCOS2D\COCOS\2D\..\..\COCOS" /I"C:\COCOS2DXDIRECTORY\MIRROR-MAZE-PUZZLE-GAME\COCOS2D\COCOS\2D\..\..\COCOS\PLATFORM" /I"C:\COCOS2DXDIRECTORY\MIRROR-MAZE-PUZZLE-GAME\COCOS2D\COCOS\2D\..\..\COCOS\PLATFORM\DESKTOP" /I"C:\COCOS2DXDIRECTORY\MIRROR-MAZE-PUZZLE-GAME\COCOS2D\COCOS\2D\..\..\EXTERNAL\GLFW3\INCLUDE\WIN32" /I"C:\COCOS2DXDIRECTORY\MIRROR-MAZE-PUZZLE-GAME\COCOS2D\COCOS\2D\..\..\EXTERNAL\WIN32-SPECIFIC\GLES\INCLUDE\OGLES" /I"C:\COCOS2DXDIRECTORY\MIRROR-MAZE-PUZZLE-GAME\COCOS2D\COCOS\2D\..\..\EXTERNAL\FREETYPE2\INCLUDE\WIN32\FREETYPE2" /I"C:\COCOS2DXDIRECTORY\MIRROR-MAZE-PUZZLE-GAME\COCOS2D\COCOS\2D\..\..\EXTERNAL\FREETYPE2\INCLUDE\WIN32\\" /I"C:\COCOS2DXDIRECTORY\MIRROR-MAZE-PUZZLE-GAME\COCOS2D\COCOS\2D\..\..\EXTERNAL" /ZI /nologo /W3 /WX- /Od /Oy- /D WIN32 /D _DEBUG /D _WINDOWS /D _USE_MATH_DEFINES /D GL_GLEXT_PROTOTYPES /D CC_ENABLE_CHIPMUNK_INTEGRATION=1 /D COCOS2D_DEBUG=1 /D _CRT_SECURE_NO_WARNINGS /D _SCL_SECURE_NO_WARNINGS /D _VARIADIC_MAX=10 /D _USING_V110_SDK71_ /D _UNICODE /D UNICODE /Gm- /EHsc /RTC1 /MDd /GS /fp:precise /Zc:wchar_t /Zc:forScope /Zc:inline /Fo"DEBUG.WIN32\\" /Fd"DEBUG.WIN32\VC140.PDB" /Gd /TP /wd4267 /wd4251 /wd4244 /analyze- C:\COCOS2DXDIRECTORY\MIRROR-MAZE-PUZZLE-GAME\CLASSES\THEMESCENE.CPP
