^C:\COCOS2DXDIRECTORY\MIRROR-MAZE-PUZZLE-GAME\CLASSES\APPDELEGATE.CPP|C:\COCOS2DXDIRECTORY\MIRROR-MAZE-PUZZLE-GAME\CLASSES\BLOCK.CPP|C:\COCOS2DXDIRECTORY\MIRROR-MAZE-PUZZLE-GAME\CLASSES\CDOORTRIGER.CPP|C:\COCOS2DXDIRECTORY\MIRROR-MAZE-PUZZLE-GAME\CLASSES\CMAP.CPP|C:\COCOS2DXDIRECTORY\MIRROR-MAZE-PUZZLE-GAME\CLASSES\DEFINEANDENUM.CPP|C:\COCOS2DXDIRECTORY\MIRROR-MAZE-PUZZLE-GAME\CLASSES\LEVELSELECTSCENE.CPP|C:\COCOS2DXDIRECTORY\MIRROR-MAZE-PUZZLE-GAME\CLASSES\LIGHT.CPP|C:\COCOS2DXDIRECTORY\MIRROR-MAZE-PUZZLE-GAME\CLASSES\LIGHTGAMESCENE.CPP|C:\COCOS2DXDIRECTORY\MIRROR-MAZE-PUZZLE-GAME\CLASSES\THEMESCENE.CPP|C:\COCOS2DXDIRECTORY\MIRROR-MAZE-PUZZLE-GAME\PROJ.WIN32\MAIN.CPP
C:\COCOS2DXDIRECTORY\MIRROR-MAZE-PUZZLE-GAME\PROJ.WIN32\DEBUG.WIN32\DEFINEANDENUM.OBJ
C:\COCOS2DXDIRECTORY\MIRROR-MAZE-PUZZLE-GAME\PROJ.WIN32\DEBUG.WIN32\LEVELSELECTSCENE.OBJ
C:\COCOS2DXDIRECTORY\MIRROR-MAZE-PUZZLE-GAME\PROJ.WIN32\DEBUG.WIN32\THEMESCENE.OBJ
C:\COCOS2DXDIRECTORY\MIRROR-MAZE-PUZZLE-GAME\PROJ.WIN32\DEBUG.WIN32\CDOORTRIGER.OBJ
C:\COCOS2DXDIRECTORY\MIRROR-MAZE-PUZZLE-GAME\PROJ.WIN32\DEBUG.WIN32\CMAP.OBJ
C:\COCOS2DXDIRECTORY\MIRROR-MAZE-PUZZLE-GAME\PROJ.WIN32\DEBUG.WIN32\MAIN.OBJ
C:\COCOS2DXDIRECTORY\MIRROR-MAZE-PUZZLE-GAME\PROJ.WIN32\DEBUG.WIN32\APPDELEGATE.OBJ
C:\COCOS2DXDIRECTORY\MIRROR-MAZE-PUZZLE-GAME\PROJ.WIN32\DEBUG.WIN32\LIGHT.OBJ
C:\COCOS2DXDIRECTORY\MIRROR-MAZE-PUZZLE-GAME\PROJ.WIN32\DEBUG.WIN32\BLOCK.OBJ
C:\COCOS2DXDIRECTORY\MIRROR-MAZE-PUZZLE-GAME\PROJ.WIN32\DEBUG.WIN32\LIGHTGAMESCENE.OBJ
^C:\COCOS2DXDIRECTORY\MIRROR-MAZE-PUZZLE-GAME\CLASSES\DEFINEANDENUM.CPP
C:\COCOS2DXDIRECTORY\MIRROR-MAZE-PUZZLE-GAME\PROJ.WIN32\DEBUG.WIN32\VC140.PDB
^C:\COCOS2DXDIRECTORY\MIRROR-MAZE-PUZZLE-GAME\CLASSES\CDOORTRIGER.CPP
C:\COCOS2DXDIRECTORY\MIRROR-MAZE-PUZZLE-GAME\PROJ.WIN32\DEBUG.WIN32\VC140.PDB
^C:\COCOS2DXDIRECTORY\MIRROR-MAZE-PUZZLE-GAME\CLASSES\LIGHT.CPP
C:\COCOS2DXDIRECTORY\MIRROR-MAZE-PUZZLE-GAME\PROJ.WIN32\DEBUG.WIN32\VC140.PDB
^C:\COCOS2DXDIRECTORY\MIRROR-MAZE-PUZZLE-GAME\CLASSES\CMAP.CPP
C:\COCOS2DXDIRECTORY\MIRROR-MAZE-PUZZLE-GAME\PROJ.WIN32\DEBUG.WIN32\VC140.PDB
^C:\COCOS2DXDIRECTORY\MIRROR-MAZE-PUZZLE-GAME\PROJ.WIN32\MAIN.CPP
C:\COCOS2DXDIRECTORY\MIRROR-MAZE-PUZZLE-GAME\PROJ.WIN32\DEBUG.WIN32\VC140.PDB
^C:\COCOS2DXDIRECTORY\MIRROR-MAZE-PUZZLE-GAME\CLASSES\LEVELSELECTSCENE.CPP|C:\COCOS2DXDIRECTORY\MIRROR-MAZE-PUZZLE-GAME\CLASSES\LIGHTGAMESCENE.CPP
C:\COCOS2DXDIRECTORY\MIRROR-MAZE-PUZZLE-GAME\PROJ.WIN32\DEBUG.WIN32\LEVELSELECTSCENE.OBJ
C:\COCOS2DXDIRECTORY\MIRROR-MAZE-PUZZLE-GAME\PROJ.WIN32\DEBUG.WIN32\LIGHTGAMESCENE.OBJ
^C:\COCOS2DXDIRECTORY\MIRROR-MAZE-PUZZLE-GAME\CLASSES\LEVELSELECTSCENE.CPP|C:\COCOS2DXDIRECTORY\MIRROR-MAZE-PUZZLE-GAME\CLASSES\LIGHTGAMESCENE.CPP|C:\COCOS2DXDIRECTORY\MIRROR-MAZE-PUZZLE-GAME\CLASSES\THEMESCENE.CPP
C:\COCOS2DXDIRECTORY\MIRROR-MAZE-PUZZLE-GAME\PROJ.WIN32\DEBUG.WIN32\LIGHTGAMESCENE.OBJ
C:\COCOS2DXDIRECTORY\MIRROR-MAZE-PUZZLE-GAME\PROJ.WIN32\DEBUG.WIN32\LEVELSELECTSCENE.OBJ
C:\COCOS2DXDIRECTORY\MIRROR-MAZE-PUZZLE-GAME\PROJ.WIN32\DEBUG.WIN32\THEMESCENE.OBJ
^C:\COCOS2DXDIRECTORY\MIRROR-MAZE-PUZZLE-GAME\CLASSES\APPDELEGATE.CPP|C:\COCOS2DXDIRECTORY\MIRROR-MAZE-PUZZLE-GAME\CLASSES\LIGHTGAMESCENE.CPP
C:\COCOS2DXDIRECTORY\MIRROR-MAZE-PUZZLE-GAME\PROJ.WIN32\DEBUG.WIN32\APPDELEGATE.OBJ
C:\COCOS2DXDIRECTORY\MIRROR-MAZE-PUZZLE-GAME\PROJ.WIN32\DEBUG.WIN32\LIGHTGAMESCENE.OBJ
^C:\COCOS2DXDIRECTORY\MIRROR-MAZE-PUZZLE-GAME\CLASSES\LEVELSELECTSCENE.CPP|C:\COCOS2DXDIRECTORY\MIRROR-MAZE-PUZZLE-GAME\CLASSES\THEMESCENE.CPP
C:\COCOS2DXDIRECTORY\MIRROR-MAZE-PUZZLE-GAME\PROJ.WIN32\DEBUG.WIN32\THEMESCENE.OBJ
C:\COCOS2DXDIRECTORY\MIRROR-MAZE-PUZZLE-GAME\PROJ.WIN32\DEBUG.WIN32\LEVELSELECTSCENE.OBJ
^C:\COCOS2DXDIRECTORY\MIRROR-MAZE-PUZZLE-GAME\CLASSES\LIGHTGAMESCENE.CPP|C:\COCOS2DXDIRECTORY\MIRROR-MAZE-PUZZLE-GAME\CLASSES\THEMESCENE.CPP
C:\COCOS2DXDIRECTORY\MIRROR-MAZE-PUZZLE-GAME\PROJ.WIN32\DEBUG.WIN32\LIGHTGAMESCENE.OBJ
C:\COCOS2DXDIRECTORY\MIRROR-MAZE-PUZZLE-GAME\PROJ.WIN32\DEBUG.WIN32\THEMESCENE.OBJ
^C:\COCOS2DXDIRECTORY\MIRROR-MAZE-PUZZLE-GAME\CLASSES\APPDELEGATE.CPP|C:\COCOS2DXDIRECTORY\MIRROR-MAZE-PUZZLE-GAME\CLASSES\LIGHTGAMESCENE.CPP|C:\COCOS2DXDIRECTORY\MIRROR-MAZE-PUZZLE-GAME\CLASSES\THEMESCENE.CPP
C:\COCOS2DXDIRECTORY\MIRROR-MAZE-PUZZLE-GAME\PROJ.WIN32\DEBUG.WIN32\LIGHTGAMESCENE.OBJ
C:\COCOS2DXDIRECTORY\MIRROR-MAZE-PUZZLE-GAME\PROJ.WIN32\DEBUG.WIN32\THEMESCENE.OBJ
C:\COCOS2DXDIRECTORY\MIRROR-MAZE-PUZZLE-GAME\PROJ.WIN32\DEBUG.WIN32\APPDELEGATE.OBJ
^C:\COCOS2DXDIRECTORY\MIRROR-MAZE-PUZZLE-GAME\CLASSES\APPDELEGATE.CPP|C:\COCOS2DXDIRECTORY\MIRROR-MAZE-PUZZLE-GAME\CLASSES\LEVELSELECTSCENE.CPP|C:\COCOS2DXDIRECTORY\MIRROR-MAZE-PUZZLE-GAME\CLASSES\LIGHTGAMESCENE.CPP|C:\COCOS2DXDIRECTORY\MIRROR-MAZE-PUZZLE-GAME\CLASSES\THEMESCENE.CPP
C:\COCOS2DXDIRECTORY\MIRROR-MAZE-PUZZLE-GAME\PROJ.WIN32\DEBUG.WIN32\LIGHTGAMESCENE.OBJ
C:\COCOS2DXDIRECTORY\MIRROR-MAZE-PUZZLE-GAME\PROJ.WIN32\DEBUG.WIN32\LEVELSELECTSCENE.OBJ
C:\COCOS2DXDIRECTORY\MIRROR-MAZE-PUZZLE-GAME\PROJ.WIN32\DEBUG.WIN32\APPDELEGATE.OBJ
C:\COCOS2DXDIRECTORY\MIRROR-MAZE-PUZZLE-GAME\PROJ.WIN32\DEBUG.WIN32\THEMESCENE.OBJ
^C:\COCOS2DXDIRECTORY\MIRROR-MAZE-PUZZLE-GAME\CLASSES\APPDELEGATE.CPP|C:\COCOS2DXDIRECTORY\MIRROR-MAZE-PUZZLE-GAME\CLASSES\CAUDIO.CPP|C:\COCOS2DXDIRECTORY\MIRROR-MAZE-PUZZLE-GAME\CLASSES\LEVELSELECTSCENE.CPP|C:\COCOS2DXDIRECTORY\MIRROR-MAZE-PUZZLE-GAME\CLASSES\LIGHTGAMESCENE.CPP|C:\COCOS2DXDIRECTORY\MIRROR-MAZE-PUZZLE-GAME\CLASSES\THEMESCENE.CPP
C:\COCOS2DXDIRECTORY\MIRROR-MAZE-PUZZLE-GAME\PROJ.WIN32\DEBUG.WIN32\LIGHTGAMESCENE.OBJ
C:\COCOS2DXDIRECTORY\MIRROR-MAZE-PUZZLE-GAME\PROJ.WIN32\DEBUG.WIN32\THEMESCENE.OBJ
C:\COCOS2DXDIRECTORY\MIRROR-MAZE-PUZZLE-GAME\PROJ.WIN32\DEBUG.WIN32\LEVELSELECTSCENE.OBJ
C:\COCOS2DXDIRECTORY\MIRROR-MAZE-PUZZLE-GAME\PROJ.WIN32\DEBUG.WIN32\APPDELEGATE.OBJ
^C:\COCOS2DXDIRECTORY\MIRROR-MAZE-PUZZLE-GAME\CLASSES\APPDELEGATE.CPP
C:\COCOS2DXDIRECTORY\MIRROR-MAZE-PUZZLE-GAME\PROJ.WIN32\DEBUG.WIN32\APPDELEGATE.OBJ
^C:\COCOS2DXDIRECTORY\MIRROR-MAZE-PUZZLE-GAME\CLASSES\LEVELSELECTSCENE.CPP
C:\COCOS2DXDIRECTORY\MIRROR-MAZE-PUZZLE-GAME\PROJ.WIN32\DEBUG.WIN32\LEVELSELECTSCENE.OBJ
^C:\COCOS2DXDIRECTORY\MIRROR-MAZE-PUZZLE-GAME\CLASSES\BLOCK.CPP|C:\COCOS2DXDIRECTORY\MIRROR-MAZE-PUZZLE-GAME\CLASSES\CAUDIO.CPP
C:\COCOS2DXDIRECTORY\MIRROR-MAZE-PUZZLE-GAME\PROJ.WIN32\DEBUG.WIN32\BLOCK.OBJ
C:\COCOS2DXDIRECTORY\MIRROR-MAZE-PUZZLE-GAME\PROJ.WIN32\DEBUG.WIN32\CAUDIO.OBJ
^C:\COCOS2DXDIRECTORY\MIRROR-MAZE-PUZZLE-GAME\CLASSES\BLOCK.CPP
C:\COCOS2DXDIRECTORY\MIRROR-MAZE-PUZZLE-GAME\PROJ.WIN32\DEBUG.WIN32\VC140.PDB
^C:\COCOS2DXDIRECTORY\MIRROR-MAZE-PUZZLE-GAME\CLASSES\CAUDIO.CPP
C:\COCOS2DXDIRECTORY\MIRROR-MAZE-PUZZLE-GAME\PROJ.WIN32\DEBUG.WIN32\VC140.PDB
C:\COCOS2DXDIRECTORY\MIRROR-MAZE-PUZZLE-GAME\PROJ.WIN32\DEBUG.WIN32\VC140.IDB
C:\COCOS2DXDIRECTORY\MIRROR-MAZE-PUZZLE-GAME\PROJ.WIN32\DEBUG.WIN32\CAUDIO.OBJ
^C:\COCOS2DXDIRECTORY\MIRROR-MAZE-PUZZLE-GAME\CLASSES\LIGHTGAMESCENE.CPP
C:\COCOS2DXDIRECTORY\MIRROR-MAZE-PUZZLE-GAME\PROJ.WIN32\DEBUG.WIN32\VC140.PDB
C:\COCOS2DXDIRECTORY\MIRROR-MAZE-PUZZLE-GAME\PROJ.WIN32\DEBUG.WIN32\VC140.IDB
C:\COCOS2DXDIRECTORY\MIRROR-MAZE-PUZZLE-GAME\PROJ.WIN32\DEBUG.WIN32\LIGHTGAMESCENE.OBJ
^C:\COCOS2DXDIRECTORY\MIRROR-MAZE-PUZZLE-GAME\CLASSES\THEMESCENE.CPP
C:\COCOS2DXDIRECTORY\MIRROR-MAZE-PUZZLE-GAME\PROJ.WIN32\DEBUG.WIN32\VC140.PDB
C:\COCOS2DXDIRECTORY\MIRROR-MAZE-PUZZLE-GAME\PROJ.WIN32\DEBUG.WIN32\VC140.IDB
C:\COCOS2DXDIRECTORY\MIRROR-MAZE-PUZZLE-GAME\PROJ.WIN32\DEBUG.WIN32\THEMESCENE.OBJ
