^C:\COCOS2DXDIRECTORY\MIRROR-MAZE-PUZZLE-GAME\COCOS2D\COCOS\EDITOR-SUPPORT\SPINE\ANIMATION.C|C:\COCOS2DXDIRECTORY\MIRROR-MAZE-PUZZLE-GAME\COCOS2D\COCOS\EDITOR-SUPPORT\SPINE\ANIMATIONSTATE.C|C:\COCOS2DXDIRECTORY\MIRROR-MAZE-PUZZLE-GAME\COCOS2D\COCOS\EDITOR-SUPPORT\SPINE\ANIMATIONSTATEDATA.C|C:\COCOS2DXDIRECTORY\MIRROR-MAZE-PUZZLE-GAME\COCOS2D\COCOS\EDITOR-SUPPORT\SPINE\ATLAS.C|C:\COCOS2DXDIRECTORY\MIRROR-MAZE-PUZZLE-GAME\COCOS2D\COCOS\EDITOR-SUPPORT\SPINE\ATLASATTACHMENTLOADER.C|C:\COCOS2DXDIRECTORY\MIRROR-MAZE-PUZZLE-GAME\COCOS2D\COCOS\EDITOR-SUPPORT\SPINE\ATTACHMENT.C|C:\COCOS2DXDIRECTORY\MIRROR-MAZE-PUZZLE-GAME\COCOS2D\COCOS\EDITOR-SUPPORT\SPINE\ATTACHMENTLOADER.C|C:\COCOS2DXDIRECTORY\MIRROR-MAZE-PUZZLE-GAME\COCOS2D\COCOS\EDITOR-SUPPORT\SPINE\BONE.C|C:\COCOS2DXDIRECTORY\MIRROR-MAZE-PUZZLE-GAME\COCOS2D\COCOS\EDITOR-SUPPORT\SPINE\BONEDATA.C|C:\COCOS2DXDIRECTORY\MIRROR-MAZE-PUZZLE-GAME\COCOS2D\COCOS\EDITOR-SUPPORT\SPINE\BOUNDINGBOXATTACHMENT.C|C:\COCOS2DXDIRECTORY\MIRROR-MAZE-PUZZLE-GAME\COCOS2D\COCOS\EDITOR-SUPPORT\SPINE\EVENT.C|C:\COCOS2DXDIRECTORY\MIRROR-MAZE-PUZZLE-GAME\COCOS2D\COCOS\EDITOR-SUPPORT\SPINE\EVENTDATA.C|C:\COCOS2DXDIRECTORY\MIRROR-MAZE-PUZZLE-GAME\COCOS2D\COCOS\EDITOR-SUPPORT\SPINE\EXTENSION.C|C:\COCOS2DXDIRECTORY\MIRROR-MAZE-PUZZLE-GAME\COCOS2D\COCOS\EDITOR-SUPPORT\SPINE\IKCONSTRAINT.C|C:\COCOS2DXDIRECTORY\MIRROR-MAZE-PUZZLE-GAME\COCOS2D\COCOS\EDITOR-SUPPORT\SPINE\IKCONSTRAINTDATA.C|C:\COCOS2DXDIRECTORY\MIRROR-MAZE-PUZZLE-GAME\COCOS2D\COCOS\EDITOR-SUPPORT\SPINE\JSON.C|C:\COCOS2DXDIRECTORY\MIRROR-MAZE-PUZZLE-GAME\COCOS2D\COCOS\EDITOR-SUPPORT\SPINE\MESHATTACHMENT.C|C:\COCOS2DXDIRECTORY\MIRROR-MAZE-PUZZLE-GAME\COCOS2D\COCOS\EDITOR-SUPPORT\SPINE\REGIONATTACHMENT.C|C:\COCOS2DXDIRECTORY\MIRROR-MAZE-PUZZLE-GAME\COCOS2D\COCOS\EDITOR-SUPPORT\SPINE\SKELETON.C|C:\COCOS2DXDIRECTORY\MIRROR-MAZE-PUZZLE-GAME\COCOS2D\COCOS\EDITOR-SUPPORT\SPINE\SKELETONBOUNDS.C|C:\COCOS2DXDIRECTORY\MIRROR-MAZE-PUZZLE-GAME\COCOS2D\COCOS\EDITOR-SUPPORT\SPINE\SKELETONDATA.C|C:\COCOS2DXDIRECTORY\MIRROR-MAZE-PUZZLE-GAME\COCOS2D\COCOS\EDITOR-SUPPORT\SPINE\SKELETONJSON.C|C:\COCOS2DXDIRECTORY\MIRROR-MAZE-PUZZLE-GAME\COCOS2D\COCOS\EDITOR-SUPPORT\SPINE\SKIN.C|C:\COCOS2DXDIRECTORY\MIRROR-MAZE-PUZZLE-GAME\COCOS2D\COCOS\EDITOR-SUPPORT\SPINE\SKINNEDMESHATTACHMENT.C|C:\COCOS2DXDIRECTORY\MIRROR-MAZE-PUZZLE-GAME\COCOS2D\COCOS\EDITOR-SUPPORT\SPINE\SLOT.C|C:\COCOS2DXDIRECTORY\MIRROR-MAZE-PUZZLE-GAME\COCOS2D\COCOS\EDITOR-SUPPORT\SPINE\SLOTDATA.C
C:\COCOS2DXDIRECTORY\MIRROR-MAZE-PUZZLE-GAME\COCOS2D\COCOS\EDITOR-SUPPORT\SPINE\PROJ.WIN32\DEBUG.WIN32\ANIMATIONSTATE.OBJ
C:\COCOS2DXDIRECTORY\MIRROR-MAZE-PUZZLE-GAME\COCOS2D\COCOS\EDITOR-SUPPORT\SPINE\PROJ.WIN32\DEBUG.WIN32\ATTACHMENTLOADER.OBJ
C:\COCOS2DXDIRECTORY\MIRROR-MAZE-PUZZLE-GAME\COCOS2D\COCOS\EDITOR-SUPPORT\SPINE\PROJ.WIN32\DEBUG.WIN32\EVENT.OBJ
C:\COCOS2DXDIRECTORY\MIRROR-MAZE-PUZZLE-GAME\COCOS2D\COCOS\EDITOR-SUPPORT\SPINE\PROJ.WIN32\DEBUG.WIN32\IKCONSTRAINTDATA.OBJ
C:\COCOS2DXDIRECTORY\MIRROR-MAZE-PUZZLE-GAME\COCOS2D\COCOS\EDITOR-SUPPORT\SPINE\PROJ.WIN32\DEBUG.WIN32\SKELETON.OBJ
C:\COCOS2DXDIRECTORY\MIRROR-MAZE-PUZZLE-GAME\COCOS2D\COCOS\EDITOR-SUPPORT\SPINE\PROJ.WIN32\DEBUG.WIN32\SKIN.OBJ
C:\COCOS2DXDIRECTORY\MIRROR-MAZE-PUZZLE-GAME\COCOS2D\COCOS\EDITOR-SUPPORT\SPINE\PROJ.WIN32\DEBUG.WIN32\SLOTDATA.OBJ
C:\COCOS2DXDIRECTORY\MIRROR-MAZE-PUZZLE-GAME\COCOS2D\COCOS\EDITOR-SUPPORT\SPINE\PROJ.WIN32\DEBUG.WIN32\ANIMATION.OBJ
C:\COCOS2DXDIRECTORY\MIRROR-MAZE-PUZZLE-GAME\COCOS2D\COCOS\EDITOR-SUPPORT\SPINE\PROJ.WIN32\DEBUG.WIN32\BONE.OBJ
C:\COCOS2DXDIRECTORY\MIRROR-MAZE-PUZZLE-GAME\COCOS2D\COCOS\EDITOR-SUPPORT\SPINE\PROJ.WIN32\DEBUG.WIN32\EVENTDATA.OBJ
C:\COCOS2DXDIRECTORY\MIRROR-MAZE-PUZZLE-GAME\COCOS2D\COCOS\EDITOR-SUPPORT\SPINE\PROJ.WIN32\DEBUG.WIN32\JSON.OBJ
C:\COCOS2DXDIRECTORY\MIRROR-MAZE-PUZZLE-GAME\COCOS2D\COCOS\EDITOR-SUPPORT\SPINE\PROJ.WIN32\DEBUG.WIN32\SKELETONBOUNDS.OBJ
C:\COCOS2DXDIRECTORY\MIRROR-MAZE-PUZZLE-GAME\COCOS2D\COCOS\EDITOR-SUPPORT\SPINE\PROJ.WIN32\DEBUG.WIN32\SKINNEDMESHATTACHMENT.OBJ
C:\COCOS2DXDIRECTORY\MIRROR-MAZE-PUZZLE-GAME\COCOS2D\COCOS\EDITOR-SUPPORT\SPINE\PROJ.WIN32\DEBUG.WIN32\ATLAS.OBJ
C:\COCOS2DXDIRECTORY\MIRROR-MAZE-PUZZLE-GAME\COCOS2D\COCOS\EDITOR-SUPPORT\SPINE\PROJ.WIN32\DEBUG.WIN32\ATTACHMENT.OBJ
C:\COCOS2DXDIRECTORY\MIRROR-MAZE-PUZZLE-GAME\COCOS2D\COCOS\EDITOR-SUPPORT\SPINE\PROJ.WIN32\DEBUG.WIN32\BONEDATA.OBJ
C:\COCOS2DXDIRECTORY\MIRROR-MAZE-PUZZLE-GAME\COCOS2D\COCOS\EDITOR-SUPPORT\SPINE\PROJ.WIN32\DEBUG.WIN32\EXTENSION.OBJ
C:\COCOS2DXDIRECTORY\MIRROR-MAZE-PUZZLE-GAME\COCOS2D\COCOS\EDITOR-SUPPORT\SPINE\PROJ.WIN32\DEBUG.WIN32\MESHATTACHMENT.OBJ
C:\COCOS2DXDIRECTORY\MIRROR-MAZE-PUZZLE-GAME\COCOS2D\COCOS\EDITOR-SUPPORT\SPINE\PROJ.WIN32\DEBUG.WIN32\SKELETONDATA.OBJ
C:\COCOS2DXDIRECTORY\MIRROR-MAZE-PUZZLE-GAME\COCOS2D\COCOS\EDITOR-SUPPORT\SPINE\PROJ.WIN32\DEBUG.WIN32\SLOT.OBJ
C:\COCOS2DXDIRECTORY\MIRROR-MAZE-PUZZLE-GAME\COCOS2D\COCOS\EDITOR-SUPPORT\SPINE\PROJ.WIN32\DEBUG.WIN32\ANIMATIONSTATEDATA.OBJ
C:\COCOS2DXDIRECTORY\MIRROR-MAZE-PUZZLE-GAME\COCOS2D\COCOS\EDITOR-SUPPORT\SPINE\PROJ.WIN32\DEBUG.WIN32\ATLASATTACHMENTLOADER.OBJ
C:\COCOS2DXDIRECTORY\MIRROR-MAZE-PUZZLE-GAME\COCOS2D\COCOS\EDITOR-SUPPORT\SPINE\PROJ.WIN32\DEBUG.WIN32\BOUNDINGBOXATTACHMENT.OBJ
C:\COCOS2DXDIRECTORY\MIRROR-MAZE-PUZZLE-GAME\COCOS2D\COCOS\EDITOR-SUPPORT\SPINE\PROJ.WIN32\DEBUG.WIN32\IKCONSTRAINT.OBJ
C:\COCOS2DXDIRECTORY\MIRROR-MAZE-PUZZLE-GAME\COCOS2D\COCOS\EDITOR-SUPPORT\SPINE\PROJ.WIN32\DEBUG.WIN32\REGIONATTACHMENT.OBJ
C:\COCOS2DXDIRECTORY\MIRROR-MAZE-PUZZLE-GAME\COCOS2D\COCOS\EDITOR-SUPPORT\SPINE\PROJ.WIN32\DEBUG.WIN32\SKELETONJSON.OBJ
^C:\COCOS2DXDIRECTORY\MIRROR-MAZE-PUZZLE-GAME\COCOS2D\COCOS\EDITOR-SUPPORT\SPINE\ANIMATION.C
C:\COCOS2DXDIRECTORY\MIRROR-MAZE-PUZZLE-GAME\COCOS2D\COCOS\EDITOR-SUPPORT\SPINE\PROJ.WIN32\DEBUG.WIN32\LIBSPINE.PDB
^C:\COCOS2DXDIRECTORY\MIRROR-MAZE-PUZZLE-GAME\COCOS2D\COCOS\EDITOR-SUPPORT\SPINE\ANIMATIONSTATE.C
C:\COCOS2DXDIRECTORY\MIRROR-MAZE-PUZZLE-GAME\COCOS2D\COCOS\EDITOR-SUPPORT\SPINE\PROJ.WIN32\DEBUG.WIN32\LIBSPINE.PDB
^C:\COCOS2DXDIRECTORY\MIRROR-MAZE-PUZZLE-GAME\COCOS2D\COCOS\EDITOR-SUPPORT\SPINE\ANIMATIONSTATEDATA.C
C:\COCOS2DXDIRECTORY\MIRROR-MAZE-PUZZLE-GAME\COCOS2D\COCOS\EDITOR-SUPPORT\SPINE\PROJ.WIN32\DEBUG.WIN32\LIBSPINE.PDB
^C:\COCOS2DXDIRECTORY\MIRROR-MAZE-PUZZLE-GAME\COCOS2D\COCOS\EDITOR-SUPPORT\SPINE\ATLAS.C
C:\COCOS2DXDIRECTORY\MIRROR-MAZE-PUZZLE-GAME\COCOS2D\COCOS\EDITOR-SUPPORT\SPINE\PROJ.WIN32\DEBUG.WIN32\LIBSPINE.PDB
^C:\COCOS2DXDIRECTORY\MIRROR-MAZE-PUZZLE-GAME\COCOS2D\COCOS\EDITOR-SUPPORT\SPINE\ATLASATTACHMENTLOADER.C
C:\COCOS2DXDIRECTORY\MIRROR-MAZE-PUZZLE-GAME\COCOS2D\COCOS\EDITOR-SUPPORT\SPINE\PROJ.WIN32\DEBUG.WIN32\LIBSPINE.PDB
^C:\COCOS2DXDIRECTORY\MIRROR-MAZE-PUZZLE-GAME\COCOS2D\COCOS\EDITOR-SUPPORT\SPINE\ATTACHMENT.C
C:\COCOS2DXDIRECTORY\MIRROR-MAZE-PUZZLE-GAME\COCOS2D\COCOS\EDITOR-SUPPORT\SPINE\PROJ.WIN32\DEBUG.WIN32\LIBSPINE.PDB
^C:\COCOS2DXDIRECTORY\MIRROR-MAZE-PUZZLE-GAME\COCOS2D\COCOS\EDITOR-SUPPORT\SPINE\ATTACHMENTLOADER.C
C:\COCOS2DXDIRECTORY\MIRROR-MAZE-PUZZLE-GAME\COCOS2D\COCOS\EDITOR-SUPPORT\SPINE\PROJ.WIN32\DEBUG.WIN32\LIBSPINE.PDB
^C:\COCOS2DXDIRECTORY\MIRROR-MAZE-PUZZLE-GAME\COCOS2D\COCOS\EDITOR-SUPPORT\SPINE\BONE.C
C:\COCOS2DXDIRECTORY\MIRROR-MAZE-PUZZLE-GAME\COCOS2D\COCOS\EDITOR-SUPPORT\SPINE\PROJ.WIN32\DEBUG.WIN32\LIBSPINE.PDB
^C:\COCOS2DXDIRECTORY\MIRROR-MAZE-PUZZLE-GAME\COCOS2D\COCOS\EDITOR-SUPPORT\SPINE\BONEDATA.C
C:\COCOS2DXDIRECTORY\MIRROR-MAZE-PUZZLE-GAME\COCOS2D\COCOS\EDITOR-SUPPORT\SPINE\PROJ.WIN32\DEBUG.WIN32\LIBSPINE.PDB
^C:\COCOS2DXDIRECTORY\MIRROR-MAZE-PUZZLE-GAME\COCOS2D\COCOS\EDITOR-SUPPORT\SPINE\BOUNDINGBOXATTACHMENT.C
C:\COCOS2DXDIRECTORY\MIRROR-MAZE-PUZZLE-GAME\COCOS2D\COCOS\EDITOR-SUPPORT\SPINE\PROJ.WIN32\DEBUG.WIN32\LIBSPINE.PDB
^C:\COCOS2DXDIRECTORY\MIRROR-MAZE-PUZZLE-GAME\COCOS2D\COCOS\EDITOR-SUPPORT\SPINE\EVENT.C
C:\COCOS2DXDIRECTORY\MIRROR-MAZE-PUZZLE-GAME\COCOS2D\COCOS\EDITOR-SUPPORT\SPINE\PROJ.WIN32\DEBUG.WIN32\LIBSPINE.PDB
^C:\COCOS2DXDIRECTORY\MIRROR-MAZE-PUZZLE-GAME\COCOS2D\COCOS\EDITOR-SUPPORT\SPINE\EVENTDATA.C
C:\COCOS2DXDIRECTORY\MIRROR-MAZE-PUZZLE-GAME\COCOS2D\COCOS\EDITOR-SUPPORT\SPINE\PROJ.WIN32\DEBUG.WIN32\LIBSPINE.PDB
^C:\COCOS2DXDIRECTORY\MIRROR-MAZE-PUZZLE-GAME\COCOS2D\COCOS\EDITOR-SUPPORT\SPINE\EXTENSION.C
C:\COCOS2DXDIRECTORY\MIRROR-MAZE-PUZZLE-GAME\COCOS2D\COCOS\EDITOR-SUPPORT\SPINE\PROJ.WIN32\DEBUG.WIN32\LIBSPINE.PDB
^C:\COCOS2DXDIRECTORY\MIRROR-MAZE-PUZZLE-GAME\COCOS2D\COCOS\EDITOR-SUPPORT\SPINE\IKCONSTRAINT.C
C:\COCOS2DXDIRECTORY\MIRROR-MAZE-PUZZLE-GAME\COCOS2D\COCOS\EDITOR-SUPPORT\SPINE\PROJ.WIN32\DEBUG.WIN32\LIBSPINE.PDB
^C:\COCOS2DXDIRECTORY\MIRROR-MAZE-PUZZLE-GAME\COCOS2D\COCOS\EDITOR-SUPPORT\SPINE\IKCONSTRAINTDATA.C
C:\COCOS2DXDIRECTORY\MIRROR-MAZE-PUZZLE-GAME\COCOS2D\COCOS\EDITOR-SUPPORT\SPINE\PROJ.WIN32\DEBUG.WIN32\LIBSPINE.PDB
^C:\COCOS2DXDIRECTORY\MIRROR-MAZE-PUZZLE-GAME\COCOS2D\COCOS\EDITOR-SUPPORT\SPINE\JSON.C
C:\COCOS2DXDIRECTORY\MIRROR-MAZE-PUZZLE-GAME\COCOS2D\COCOS\EDITOR-SUPPORT\SPINE\PROJ.WIN32\DEBUG.WIN32\LIBSPINE.PDB
^C:\COCOS2DXDIRECTORY\MIRROR-MAZE-PUZZLE-GAME\COCOS2D\COCOS\EDITOR-SUPPORT\SPINE\MESHATTACHMENT.C
C:\COCOS2DXDIRECTORY\MIRROR-MAZE-PUZZLE-GAME\COCOS2D\COCOS\EDITOR-SUPPORT\SPINE\PROJ.WIN32\DEBUG.WIN32\LIBSPINE.PDB
^C:\COCOS2DXDIRECTORY\MIRROR-MAZE-PUZZLE-GAME\COCOS2D\COCOS\EDITOR-SUPPORT\SPINE\REGIONATTACHMENT.C
C:\COCOS2DXDIRECTORY\MIRROR-MAZE-PUZZLE-GAME\COCOS2D\COCOS\EDITOR-SUPPORT\SPINE\PROJ.WIN32\DEBUG.WIN32\LIBSPINE.PDB
^C:\COCOS2DXDIRECTORY\MIRROR-MAZE-PUZZLE-GAME\COCOS2D\COCOS\EDITOR-SUPPORT\SPINE\SKELETON.C
C:\COCOS2DXDIRECTORY\MIRROR-MAZE-PUZZLE-GAME\COCOS2D\COCOS\EDITOR-SUPPORT\SPINE\PROJ.WIN32\DEBUG.WIN32\LIBSPINE.PDB
^C:\COCOS2DXDIRECTORY\MIRROR-MAZE-PUZZLE-GAME\COCOS2D\COCOS\EDITOR-SUPPORT\SPINE\SKELETONBOUNDS.C
C:\COCOS2DXDIRECTORY\MIRROR-MAZE-PUZZLE-GAME\COCOS2D\COCOS\EDITOR-SUPPORT\SPINE\PROJ.WIN32\DEBUG.WIN32\LIBSPINE.PDB
^C:\COCOS2DXDIRECTORY\MIRROR-MAZE-PUZZLE-GAME\COCOS2D\COCOS\EDITOR-SUPPORT\SPINE\SKELETONDATA.C
C:\COCOS2DXDIRECTORY\MIRROR-MAZE-PUZZLE-GAME\COCOS2D\COCOS\EDITOR-SUPPORT\SPINE\PROJ.WIN32\DEBUG.WIN32\LIBSPINE.PDB
^C:\COCOS2DXDIRECTORY\MIRROR-MAZE-PUZZLE-GAME\COCOS2D\COCOS\EDITOR-SUPPORT\SPINE\SKELETONJSON.C
C:\COCOS2DXDIRECTORY\MIRROR-MAZE-PUZZLE-GAME\COCOS2D\COCOS\EDITOR-SUPPORT\SPINE\PROJ.WIN32\DEBUG.WIN32\LIBSPINE.PDB
^C:\COCOS2DXDIRECTORY\MIRROR-MAZE-PUZZLE-GAME\COCOS2D\COCOS\EDITOR-SUPPORT\SPINE\SKIN.C
C:\COCOS2DXDIRECTORY\MIRROR-MAZE-PUZZLE-GAME\COCOS2D\COCOS\EDITOR-SUPPORT\SPINE\PROJ.WIN32\DEBUG.WIN32\LIBSPINE.PDB
^C:\COCOS2DXDIRECTORY\MIRROR-MAZE-PUZZLE-GAME\COCOS2D\COCOS\EDITOR-SUPPORT\SPINE\SKINNEDMESHATTACHMENT.C
C:\COCOS2DXDIRECTORY\MIRROR-MAZE-PUZZLE-GAME\COCOS2D\COCOS\EDITOR-SUPPORT\SPINE\PROJ.WIN32\DEBUG.WIN32\LIBSPINE.PDB
^C:\COCOS2DXDIRECTORY\MIRROR-MAZE-PUZZLE-GAME\COCOS2D\COCOS\EDITOR-SUPPORT\SPINE\SLOT.C
C:\COCOS2DXDIRECTORY\MIRROR-MAZE-PUZZLE-GAME\COCOS2D\COCOS\EDITOR-SUPPORT\SPINE\PROJ.WIN32\DEBUG.WIN32\LIBSPINE.PDB
^C:\COCOS2DXDIRECTORY\MIRROR-MAZE-PUZZLE-GAME\COCOS2D\COCOS\EDITOR-SUPPORT\SPINE\SLOTDATA.C
C:\COCOS2DXDIRECTORY\MIRROR-MAZE-PUZZLE-GAME\COCOS2D\COCOS\EDITOR-SUPPORT\SPINE\PROJ.WIN32\DEBUG.WIN32\LIBSPINE.PDB
^C:\COCOS2DXDIRECTORY\MIRROR-MAZE-PUZZLE-GAME\COCOS2D\COCOS\EDITOR-SUPPORT\SPINE\POLYGONBATCH.CPP|C:\COCOS2DXDIRECTORY\MIRROR-MAZE-PUZZLE-GAME\COCOS2D\COCOS\EDITOR-SUPPORT\SPINE\SKELETONANIMATION.CPP|C:\COCOS2DXDIRECTORY\MIRROR-MAZE-PUZZLE-GAME\COCOS2D\COCOS\EDITOR-SUPPORT\SPINE\SKELETONRENDERER.CPP|C:\COCOS2DXDIRECTORY\MIRROR-MAZE-PUZZLE-GAME\COCOS2D\COCOS\EDITOR-SUPPORT\SPINE\SPINE-COCOS2DX.CPP
C:\COCOS2DXDIRECTORY\MIRROR-MAZE-PUZZLE-GAME\COCOS2D\COCOS\EDITOR-SUPPORT\SPINE\PROJ.WIN32\DEBUG.WIN32\POLYGONBATCH.OBJ
C:\COCOS2DXDIRECTORY\MIRROR-MAZE-PUZZLE-GAME\COCOS2D\COCOS\EDITOR-SUPPORT\SPINE\PROJ.WIN32\DEBUG.WIN32\SKELETONRENDERER.OBJ
C:\COCOS2DXDIRECTORY\MIRROR-MAZE-PUZZLE-GAME\COCOS2D\COCOS\EDITOR-SUPPORT\SPINE\PROJ.WIN32\DEBUG.WIN32\SKELETONANIMATION.OBJ
C:\COCOS2DXDIRECTORY\MIRROR-MAZE-PUZZLE-GAME\COCOS2D\COCOS\EDITOR-SUPPORT\SPINE\PROJ.WIN32\DEBUG.WIN32\SPINE-COCOS2DX.OBJ
^C:\COCOS2DXDIRECTORY\MIRROR-MAZE-PUZZLE-GAME\COCOS2D\COCOS\EDITOR-SUPPORT\SPINE\POLYGONBATCH.CPP
C:\COCOS2DXDIRECTORY\MIRROR-MAZE-PUZZLE-GAME\COCOS2D\COCOS\EDITOR-SUPPORT\SPINE\PROJ.WIN32\DEBUG.WIN32\LIBSPINE.PDB
^C:\COCOS2DXDIRECTORY\MIRROR-MAZE-PUZZLE-GAME\COCOS2D\COCOS\EDITOR-SUPPORT\SPINE\SKELETONANIMATION.CPP
C:\COCOS2DXDIRECTORY\MIRROR-MAZE-PUZZLE-GAME\COCOS2D\COCOS\EDITOR-SUPPORT\SPINE\PROJ.WIN32\DEBUG.WIN32\LIBSPINE.PDB
^C:\COCOS2DXDIRECTORY\MIRROR-MAZE-PUZZLE-GAME\COCOS2D\COCOS\EDITOR-SUPPORT\SPINE\SKELETONRENDERER.CPP
C:\COCOS2DXDIRECTORY\MIRROR-MAZE-PUZZLE-GAME\COCOS2D\COCOS\EDITOR-SUPPORT\SPINE\PROJ.WIN32\DEBUG.WIN32\LIBSPINE.PDB
^C:\COCOS2DXDIRECTORY\MIRROR-MAZE-PUZZLE-GAME\COCOS2D\COCOS\EDITOR-SUPPORT\SPINE\SPINE-COCOS2DX.CPP
C:\COCOS2DXDIRECTORY\MIRROR-MAZE-PUZZLE-GAME\COCOS2D\COCOS\EDITOR-SUPPORT\SPINE\PROJ.WIN32\DEBUG.WIN32\LIBSPINE.PDB
